Account ID,Account Name,Opportunity Owner,Opportunity ID,Opportunity Name,Opportunity Number,Opportunity Country (This is the shipping country),State/Province of Opportunity(This the shipping state),Shipping Country,Shipping State/Province,Billing Country,Billing State/Province,Sold To Country,Sold To State/Province,Unnamed: 14,Unnamed: 15,Red highlights needs to be filled in,Once done filling information goto Conditional Formatting and click clear Rules --> Clear Rules from Entire Sheet
001i000001PVoff,Horizon Broadcast LLP,Anil Bhardwaj,0063100000dN9Ie,"20 KW & 6 KW Tx Exciter, 8 PLP DVBT-2 transmitter system, star India",OP-0009803,India,,India,,India,,India,,,,,
0013100001kIuU4,ABC Radio,Anil Bhardwaj,0063100000dfitt,OP-0010175 ABC Radio Banlgadesh Phase 2 FM Expansion R-21 20160822,OP-0010175,Bangladesh,,,,Bangladesh,,Bangladesh,,,,,
001i000001PVoff,Horizon Broadcast LLP,Anil Bhardwaj,0063100000dp7x8,RenderLive 5KW+1KW System With Accessories,OP-0010220,India,,India,,India,,India,,,,,
001i000001PVoff,Horizon Broadcast LLP,Anil Bhardwaj,0063100000fjZlm,150 KW MW in 1+1 configuration,OP-0011407,India,,India,,India,,India,,,,,
0013100001i70Uy,Radio Nepal,Anil Bhardwaj,0065A00001HMc09,FM Transmitters of 2 KW 1 KW 500 W,OP-0017395,Nepal,,Nepal,,Nepal,,Nepal,,,,,
0015A00001SCdsu,Wave Media Solutions,Anil Bhardwaj,0065A000019mbx9,2 KW FAX,OP-0017347,United Arab Emirates,,United Arab Emirates,,UAE,,United Arab Emirates,,,,,
0013100001q9sZ7,Three D Integrated Solutions Ltd.,Anil Bhardwaj,0065A000019mVXe,Intraplex FTI Ph 1,OP-0017308,India,,India,Gurgaon,India,Gurgaon,,,,,,
0015A00002CAVDf,BTV Bangladesh,Anil Bhardwaj,0065A00001HQR7H,5 Nos Analog 5 KW Transmitter,OP-0018073,Bangladesh,,Bangladesh,Rampura,Bangladesh,Rampura,,,,,,
001i000001PVrSR,Bangladesh Betar,Anil Bhardwaj,0065A00000m926E,Cox Bazar 10 KW,OP-0016184,Bangladesh,,Bangladesh,,Bangladesh,,Bangladesh,,,,,
001i000001PVoff,Horizon Broadcast LLP,Anil Bhardwaj,0063100000hFt9R,JCL INFRA,OP-0012016,India,,India,,India,,India,,,,,
001i000001PVoff,Horizon Broadcast LLP,Anil Bhardwaj,0063100000gSHl8,Doordarshan HTEL Spares,OP-0011642,India,,India,,India,,India,,,,,
0013100001oTXhs,The Mathrubhumi Printing & Publishing Co,Anil Bhardwaj,0063100000gSIXn,"Mathrubhumi Alleppey Site 5 kw system, horizon broadcast India",OP-0011644,India,,India,,India,,India,,,,,
001i000001QNhGa,Jaggard Wireless Communications,Anil Bhardwaj,0065A00000Wtrmz,Jaggard Spare DX10,OP-0013840,United Arab Emirates,,,,,0,United Arab Emirates,,,,,
001i000001PVrTs,Resources 21,Anil Bhardwaj,0065A00000WtqRp,R21 Intraplex IOM 2017JM,OP-0013825,Bangladesh,,Bangladesh,,Bangladesh,,Bangladesh,,,,,
001i000001RLfTa,Aramco - KSA,Anil Bhardwaj,0065A00000i0iK6,Aramco FM expansion,OP-0013297,Saudi Arabia,,,,,,Saudi Arabia,,,,,
001i000001PVqtg,All India Radio,Anil Bhardwaj,0065A00000i0kHc,AIR HD UPGRADE,OP-0013307,India,,India,,India,,India,,,,,
001i000001PVqjn,First Gulf Company,Anil Bhardwaj,0065A00000Wu4BM,FGC Aramco RFQ 14/11/2017JM,OP-0013940,Saudi Arabia,,Saudi Arabia,,Saudi Arabia,,Saudi Arabia,,,,,
0015A00001SCzXA,LEBACOM,Anil Bhardwaj,0065A00000Wu4g6,LEBACOM- Kuwait DVBT2 Phase 3 Project,OP-0013944,Lebanon,,Lebanon,,Lebanon,,Lebanon,,,,,
001i000001PVrSY,Entertainment Network (India) LTD,Anil Bhardwaj,0065A00001WP2ei,ENIL 10 + 10 KW Delhi,OP-0018531,India,,India,,India,,India,,,,,
001i000001PVqjn,First Gulf Company,Anil Bhardwaj,0065A00000ibIUC,FGC - CODEC - IPLINK100,OP-0014195,Saudi Arabia,,Saudi Arabia,,Saudi Arabia,,Saudi Arabia,,,,,
0013100001q9sZ7,Three D Integrated Solutions Ltd.,Anil Bhardwaj,0065A00001WP2po,Intraplex FTI Ph 2 additional requirement,OP-0018533,India,,India,Gurgaon,India,Gurgaon,,,,,,
0013100001cKHF0,Media Group International,Anil Bhardwaj,0065A00000WuEQ3,"Qatar four sets of 5 KW tender, Qatar Media Corporation",OP-0014243,Qatar,,,,Qatar,,Qatar,,,,,
001i000001PVrSR,Bangladesh Betar,Anil Bhardwaj,0065A00000ib0Ir,"Betar 10 KW HD Bangladesh , Bangaldesh Advance technologies",OP-0014109,Bangladesh,,Bangladesh,,Bangladesh,,Bangladesh,,,,,
001i000001PVrSY,Entertainment Network (India) LTD,Anil Bhardwaj,0065A00000ib0Iw,"10 KW FM transmitter 2 nos replacement, horizon broadcast India",OP-0014110,India,,India,,India,,India,,,,,
001i000001PVrTs,Resources 21,Anil Bhardwaj,0065A00000ibIUH,Radio Today 5 KW Bangladesh,OP-0014196,Bangladesh,,Bangladesh,,Bangladesh,,Bangladesh,,,,,
001i000001PVrLC,OMNI GROUP - QATAR,Anil Bhardwaj,0065A00000ibHpJ,QATAR OMNIGROUP FAX5K,OP-0014182,Qatar,,Qatar,,Qatar,,Qatar,,,,,
001i000001PVqYv,AV Solutions FZCO,Anil Bhardwaj,0065A00000ibJ7L,IRAQ 2KW FAX,OP-0014198,United Arab Emirates,,United Arab Emirates,,United Arab Emirates,,United Arab Emirates,,,,,
0015A00002CA2eA,Rajasthan Patrika,Anil Bhardwaj,0065A00001HQDcN,10 KW & 5 KW FM transmitter,OP-0017972,India,,India,Rajasthan,India,Rajasthan,,,,,,
001i000001PVqjq,Bilgipark Goruntu,Anil Bhardwaj,0065A00000k0o5X,IPLINK100p DOGUS,OP-0014799,Turkey,,Turkey,,Turkey,,Turkey,,,,,
0013100001aLFOD,HT Media Limited,Anil Bhardwaj,0065A00001HNGfO,OP-0017649_10 KW & 5 KW FAX,OP-0017649,India,,India,,India,,India,,,,,
001i000001QMqHD,SUN TV NETWORK LTD.,Anil Bhardwaj,0065A00000jajl6,RED FM 3 KW + 1 kW,OP-0015585,India,,India,,India,,India,,,,,
0013100001dlvSp,East West Media Group Ltd.,Anil Bhardwaj,0065A00000jamWK,10 KW + 3 KW,OP-0015612,Bangladesh,,Bangladesh,,Bangladesh,,Bangladesh,,,,,
0013100001kIuU4,ABC Radio,Anil Bhardwaj,0065A00000jajlG,ABC Radio 10 KW replacement,OP-0015586,Bangladesh,,,,Bangladesh,,Bangladesh,,,,,
001i000001PVrBR,TEK SIGNALS,Anil Bhardwaj,0065A00000lgyne,20KW FM system in DWTC - DU,OP-0015679,United Arab Emirates,,United Arab Emirates,,United Arab Emirates,,United Arab Emirates,,,,,
001i000001PVqjn,First Gulf Company,Anil Bhardwaj,0065A00000jZVP2,"FAX50, FGC",OP-0014881,Saudi Arabia,,Saudi Arabia,,Saudi Arabia,,Saudi Arabia,,,,,
001i000001QMqHD,SUN TV NETWORK LTD.,Anil Bhardwaj,0065A00000lguNo,5KW + 1 KW,OP-0015641,India,,India,,India,,India,,,,,
0015A00001SCzXA,LEBACOM,Anil Bhardwaj,0065A00000lhDE9,KBC 2 sets of 2.5 KW Tx in 1+1 dual exciter,OP-0015801,Lebanon,,Lebanon,,Lebanon,,Lebanon,,,,,
001i000001PVrBg,Arraycom (India) LTD,Anil Bhardwaj,0065A00000qiH05,DD order for 3 ULX Transmitter Arraycom,OP-0016752,India,,India,,India,,India,,,,,
001i000001ROjjD,Hedra Technology,Anil Bhardwaj,0065A00001WODwQ,Hedra 3 KW Tx dual Exciter,OP-0018290,Pakistan,,Pakistan,,Pakistan,,Pakistan,,,,,
001i000001PVrTs,Resources 21,Anil Bhardwaj,0065A00000qidOB,Desh Radio,OP-0016808,Bangladesh,,Bangladesh,,Bangladesh,,Bangladesh,,,,,
001i000001PVoff,Horizon Broadcast LLP,Anil Bhardwaj,0065A00000qhpfM,ATSC Exciter & 500 W transmitter,OP-0016613,India,,India,,India,,India,,,,,
001i000001PVrBg,Arraycom (India) LTD,Anil Bhardwaj,0065A00000m9loB,Services PO for 10 KW Analog UHF 1+1,OP-0016318,India,,India,,India,,India,,,,,
0013100001ririC,Shock Middle East FZ-LLC,Anil Bhardwaj,0065A00000m8mwo,FAX 50,OP-0016127,United Arab Emirates,,United Arab Emirates,,United Arab Emirates,,United Arab Emirates,,,,,
001i000001PVrSR,Bangladesh Betar,Anil Bhardwaj,0065A00000qhtIM,Bangladesh Betar Console,OP-0016624,Bangladesh,,Bangladesh,,Bangladesh,,Bangladesh,,,,,
001i000001PVqou,THREE D INTEGRATED SOLUTIONS LTD,Anil Bhardwaj,0065A00001YlS5a,Cards for POC FTI India,OP-0019723,India,,India,,India,,India,,,,,
0015A00001SCzXA,LEBACOM,Anil Bhardwaj,0065A00000m0QIC,IP LInk MOI,OP-0016099,Lebanon,,Lebanon,,Lebanon,,Lebanon,,,,,
0015A000024Lh8X,Gurhan Construction,Anil Bhardwaj,0065A00000m7ZCP,FAX 2 K with spares for Afghanistan (IBB),OP-0016115,Turkey,,Turkey,,Turkey,,,,,,,
0015A00002DfgE0,Bakshi Construction Group,Anil Bhardwaj,0065A00001WO8xo,Radio in A Bag 1 KW for FM,OP-0018257,Afghanistan,,Afghanistan,,Afghanistan,,,,,,,
001i000001ROjjD,Hedra Technology,Anil Bhardwaj,0065A00000qiGCO,LX 1 KW 4 numbers,OP-0016746,Pakistan,,Pakistan,,Pakistan,,Pakistan,,,,,
001i000001PVoff,Horizon Broadcast LLP,Anil Bhardwaj,0065A00000lxuHZ,Royal Media 3 KW,OP-0016075,India,,India,,India,,India,,,,,
0015A00002AyjNT,ACES KSA,Anil Bhardwaj,0065A00001HMjoy,two systems of 5+1 2 KW & 300 W,OP-0017409,Saudi Arabia,,Saudi Arabia,,Saudi Arabia,,,,,,,
001i000001PVrSR,Bangladesh Betar,Anil Bhardwaj,0065A00000m9Fvv,10 KW sylhet Project Bangladesh Betar,OP-0016230,Bangladesh,,Bangladesh,,Bangladesh,,Bangladesh,,,,,
001i000001PVoff,Horizon Broadcast LLP,Anil Bhardwaj,0065A00000qizLV,KBC 5 KW DVBT2,OP-0016974,India,,India,,India,,India,,,,,
001i000001PVoff,Horizon Broadcast LLP,Anil Bhardwaj,0065A00001HN3ab,3 KW DVBT2 Nepal,OP-0017522,India,,India,,India,,India,,,,,
001i000001PVqtg,All India Radio,Anil Bhardwaj,0065A00001HPUhb,10 KW Liquid Cooled FM Transmitters,OP-0017813,India,,India,,India,,India,,,,,
0015A00002CA7Ma,SLRC Srilanka,Anil Bhardwaj,0065A00001HQHlj,5 KW Analog UHF TV Transmitter,OP-0018002,Srinlanka,,Srinlanka,,Srinlanka,,,,,,,
001i000001RLfnH,RADCOM Technologies (Pvt) Ltd.,Anil Bhardwaj,0065A00001X9ZhT,2.5 kW FM transmitters 2 No,OP-0018894,Sri Lanka,,,,,,,,,,,
001i000001PVrSR,Bangladesh Betar,Anil Bhardwaj,0065A00001X9Zh9,50 KW MW AM transmitter,OP-0018893,Bangladesh,,Bangladesh,,Bangladesh,,Bangladesh,,,,,
001i000001PVoff,Horizon Broadcast LLP,Anil Bhardwaj,0065A00001XAH5L,Audio Processor Card,OP-0019130,India,,India,,India,,India,,,,,
001i000001PVrSR,Bangladesh Betar,Anil Bhardwaj,0065A00001Yl5yk,SITC 10 KW HD COMPATIBLE FM TRANSMITTER BETAR BANDARBON,OP-0019651,Bangladesh,,Bangladesh,,Bangladesh,,Bangladesh,,,,,
001i000001XNmeN,Horizon Electronics (FZE),Anil Bhardwaj,0065A00000Wt0iu,Zee Dubai,OP-0013406,United Arab Emirates,,United Arab Emirates,,United Arab Emirates,,United Arab Emirates,,,,,
001i000001PVoff,Horizon Broadcast LLP,Anil Bhardwaj,0063100000dN2Mm,N+1 Configuration Horizon,OP-0009744,India,,India,,India,,India,,,,,
0013100001cxVBV,Rotex Limited,Anil Bhardwaj,0063100000a9SpH,Requirement for supplying STL links for Pirei FM - SLBC,OP-0007720,Sri Lanka,,,,Sri Lanka,,,,,,,
001i000001PVoff,Horizon Broadcast LLP,Anil Bhardwaj,0063100000a91ms,IP Links for HT,OP-0007705,India,,India,,India,,India,,,,,
001i000001PVqjn,First Gulf Company,Anil Bhardwaj,0065A000019mM4w,M2X Exciter,OP-0017247,Saudi Arabia,,Saudi Arabia,,Saudi Arabia,,Saudi Arabia,,,,,
001i000001PVrBg,Arraycom (India) LTD,Anil Bhardwaj,0065A00001Ym4Z9,Arraycom Spares repeat order for DD,OP-0019860,India,,India,,India,,India,,,,,
001i000001PVqjn,First Gulf Company,Anil Bhardwaj,0063100000aB0NK,Najran and Abha Spares Orders Tracking Q4 2017,OP-0007875,Saudi Arabia,,Saudi Arabia,,Saudi Arabia,,Saudi Arabia,,,,,
001i000001PVqmB,Doordarshan Bhawan,Anil Bhardwaj,0063100000c2yW8,50W (1+1) VHF/UHF Transmitters,OP-0008903,India,,India,,India,,India,,,,,
001i000001PVrTs,Resources 21,Anil Bhardwaj,006i000000W82yq,1-AW77DR 10 KW FM TX Quote for Bangla Radio,OP-0005648,Bangladesh,,Bangladesh,,Bangladesh,,Bangladesh,,,,,
001i000001PVqjn,First Gulf Company,Anil Bhardwaj,0065A00000lgxDY,Oman Tender 5 KW,OP-0015658,Saudi Arabia,,Saudi Arabia,,Saudi Arabia,,Saudi Arabia,,,,,
0013100001jqzrQ,RGB Broadcasting,Anil Bhardwaj,0065A00001HMzPn,Bahrain DAB,OP-0017501,India,,"Kerala , India",Kochi -,"Kerala , India",Kochi -,,,,,,
001i000001PVrTs,Resources 21,Anil Bhardwaj,006i000000W833W,1-B7VHLT Media Today FM Phase 1,OP-0005723,Bangladesh,,Bangladesh,,Bangladesh,,Bangladesh,,,,,
001i000001PVoff,Horizon Broadcast LLP,Anil Bhardwaj,006i000000W7ulH,Reliance FM Phase III 20150606JM,OP-0004737,India,,India,,India,,India,,,,,
0015A00002BYtUt,Naztec International Group LLC,Anil Bhardwaj,0065A00001HN9B1,2 KW FM Transmitter,OP-0017588,United States,Florida,USA,Florida,USA,Florida,Saudi Arabia,Al Khobar,,,,
001i000001PVoff,Horizon Broadcast LLP,Anil Bhardwaj,0063100000dpg6L,Switching Solution for old Z5CD transmitter,OP-0010329,India,,India,,India,,India,,,,,
001i000001PVoff,Horizon Broadcast LLP,Anil Bhardwaj,0063100000eDeJH,Mathrubhumi,OP-0010519,India,,India,,India,,India,,,,,
001i000001PVqa7,Abu Dhabi Media,Anil Bhardwaj,0065A00000WtIoY,Procurement Management-Tender no 72 /2017 ? Ittihad Building,OP-0013545,United Arab Emirates,,United Arab Emirates,,United Arab Emirates,,United Arab Emirates,,,,,
001i000001PVoff,Horizon Broadcast LLP,Anil Bhardwaj,0063100000awAJV,HT Media combine output of FAX 10+10 KW to provide 20 KW at Antenna,OP-0007992,India,,India,,India,,India,,,,,
001i000001PVrTs,Resources 21,Anil Bhardwaj,0063100000a7k9m,Radio Bhumi setup for 2 Stations,OP-0007543,Bangladesh,,Bangladesh,,Bangladesh,,Bangladesh,,,,,
001i000001PVoff,Horizon Broadcast LLP,Anil Bhardwaj,0063100000a8Al6,OP-0007607 BECIL 1 KW - 500 W,OP-0007607,India,,India,,India,,India,,,,,
001i000001PVoff,Horizon Broadcast LLP,Anil Bhardwaj,0063100000awOVu,MBPL FM Phase 3,OP-0008029,India,,India,,India,,India,,,,,
001i000001PVqmB,Doordarshan Bhawan,Anil Bhardwaj,006i000000VRlUC,10 KW DVB-T2 & T2 Lite Transmitter for DD 44 Locations,OP-0002529,India,,India,,India,,India,,,,,
001i000001PVqmB,Doordarshan Bhawan,Anil Bhardwaj,006i000000VRlUD,10KW +10KW 3 number Analog transmitter for Doordarshan,OP-0002530,India,,India,,India,,India,,,,,
001i000001PVqtg,All India Radio,Anil Bhardwaj,006i000000VRlUL,Quote for 20KW FM Transmitter for All India Radio,OP-0002538,India,,India,,India,,India,,,,,
001i000001PVqtg,All India Radio,Anil Bhardwaj,006i000000VRlUM,Quote for 10KW FM Transmitter for All India Radio,OP-0002539,India,,India,,India,,India,,,,,
0015A00001yYWRT,Nepal Television Corporation,Anil Bhardwaj,0065A00000jTsX3,"1 KW UHF (DVB-T2) TV Transmitters 9 sets & 2 KW 2 sets, Horizon Broadcast",OP-0014608,Nepal,,,,,,Nepal,,,,,
0015A000020vnrJ,Clear Media(India) Pvt Ltd,Anil Bhardwaj,0065A00000lhBOk,FAX 50 Exciter,OP-0015790,India,,India,,India,,India,,,,,
001i000001QNhGF,GBS Alliance PTE Ltd,Anil Bhardwaj,006i000000W83sy,"Quote for EAP, Sri Lanka",OP-0005769,Sri Lanka,,,,,0,,,,,,
001i000001PVrRW,GATELINK COMMUNICATION COMPANY W.L.L.,Anil Bhardwaj,0065A00000WirFh,OP-0012956 KTV Phase 3 DVBT2 Deployment ( SFN ),OP-0012956,Kuwait,,Kuwait,,Kuwait,,Kuwait,,,,,
001i000001PVqmB,Doordarshan Bhawan,Anil Bhardwaj,006i000000VRlak,1-ABT1PL quote for DVB-T2 LITE and Multi PLP,OP-0002919,India,,India,,India,,India,,,,,
001i000001PVrTs,Resources 21,Anil Bhardwaj,006i000000W81Ia,1-B8K5UK Radio shadhin Bangladesh,OP-0005245,Bangladesh,,Bangladesh,,Bangladesh,,Bangladesh,,,,,
0015A00002CAVKH,Axis and Digit System,Anil Bhardwaj,0065A00001HQRHt,10 KW FAX,OP-0018077,Bangladesh,,Bangladesh,Dhaka,Bangladesh,Dhaka,,,,,,
001i000001ROjjD,Hedra Technology,Anil Bhardwaj,0065A00000jZosX,Refurb FAX1 KW,OP-0015063,Pakistan,,Pakistan,,Pakistan,,Pakistan,,,,,
001i000001PVoff,Horizon Broadcast LLP,Anil Bhardwaj,0065A00001WOHPD,Horizon srilanka,OP-0018328,India,,India,,India,,India,,,,,
001i000001PVrTs,Resources 21,Anil Bhardwaj,006i000000W82yS,1-B8BIPN Radio Capital - Bangladesh,OP-0005624,Bangladesh,,Bangladesh,,Bangladesh,,Bangladesh,,,,,
001i000001PVoff,Horizon Broadcast LLP,Anil Bhardwaj,0063100000fgwfs,flyway system,OP-0011173,India,,India,,India,,India,,,,,
001i000001PVoff,Horizon Broadcast LLP,Anil Bhardwaj,0063100000bOL5c,2 Fax50W,OP-0008538,India,,India,,India,,India,,,,,
0015A000020uu5t,Yara Media,Anil Bhardwaj,0065A00000ja8Yd,2 Nos 5 KW Tx,OP-0015248,United Arab Emirates,,,,,,,,,,,
001i000001QMqH1,SHARJAH MEDIA CORPORATION,Anil Bhardwaj,006i000000WAA6p,OP-0006032 2+1 20KW FM upgrade SMC,OP-0006032,United Arab Emirates,,United Arab Emirates,,United Arab Emirates,,United Arab Emirates,,,,,
001i000001PVoff,Horizon Broadcast LLP,Anil Bhardwaj,006i000000XD4Jh,OP-0006178 MBPL 5+1 FM Phase III,OP-0006178,India,,India,,India,,India,,,,,
001i000001PVoff,Horizon Broadcast LLP,Anil Bhardwaj,006i000000XD4Hj,OP-0006176 MBPL 10+1 FM Phase III,OP-0006176,India,,India,,India,,India,,,,,
0013100001XPvFI,BECIL,Anil Bhardwaj,0063100000YKSmO,DRM + Highway Radio Project,OP-0006601,India,,India,Uttar Pradesh,India,Uttar Pradesh,,,,,,
0013100001i70Uy,Radio Nepal,Anil Bhardwaj,0063100000YKKLR,Tender for supply of FM Transmitters to Radio Nepal,OP-0006575,Nepal,,Nepal,,Nepal,,Nepal,,,,,
001i000001PVoff,Horizon Broadcast LLP,Anil Bhardwaj,0063100000ZVxKS,Radio Rangila 5+1 transmitter & accessories,OP-0007028,India,,India,,India,,India,,,,,
001i000001PVrTs,Resources 21,Anil Bhardwaj,0065A00000WuIlk,Radio Dhoni Ph 2,OP-0014283,Bangladesh,,Bangladesh,,Bangladesh,,Bangladesh,,,,,
001i000001PVoff,Horizon Broadcast LLP,Anil Bhardwaj,0063100000ZZRsm,OP-0007237 Odhisa TV 5+1 Tx,OP-0007237,India,,India,,India,,India,,,,,
001i000001PVoff,Horizon Broadcast LLP,Anil Bhardwaj,0063100000ZZRsr,Sarthak Films 5+1 Tx,OP-0007238,India,,India,,India,,India,,,,,
0013100001jqzrQ,RGB Broadcasting,Anil Bhardwaj,0063100000dN7RB,Oasis Audio Mixing console,OP-0009794,India,,"Kerala , India",Kochi -,"Kerala , India",Kochi -,,,,,,
001i000001PVoff,Horizon Broadcast LLP,Anil Bhardwaj,0063100000dO4kU,OP-0009964 Radio One,OP-0009964,India,,India,,India,,India,,,,,
001i000001PVqa7,Abu Dhabi Media,Anil Bhardwaj,0063100000ffdm8,Procurement Management-Tender no 73 /2017 ? Ittihad Building,OP-0011059,United Arab Emirates,,United Arab Emirates,,United Arab Emirates,,United Arab Emirates,,,,,
0015A00001yPxD1,Gold FM Limited,Anil Bhardwaj,0063100000gRGSP,"Gold FM Radio 10KW Transmitter System, Resource 21 Bangladesh",OP-0011549,Bangladesh,,Bangladesh,,Bangladesh,,Bangladesh,,,,,
0013100001q9sZ7,Three D Integrated Solutions Ltd.,Anil Bhardwaj,0063100000fjccp,Intraplex,OP-0011411,India,,India,Gurgaon,India,Gurgaon,,,,,,
0015A00001tHmwa,Sambhaav Media Limited,Anil Bhardwaj,0063100000gRu7a,"3 KW FM 5 systems, India , Horizon broadcast",OP-0011596,India,,India,,India,,India,,,,,
001i000001PVrBg,Arraycom (India) LTD,Anil Bhardwaj,0065A00001XBXle,Services for 5 KW Digital ready UHF transmitter Doordarshan,OP-0019464,India,,India,,India,,India,,,,,
001i000001ROjjD,Hedra Technology,Anil Bhardwaj,0065A00001X8yUj,20 KW FAX Hedra Pakistan,OP-0018626,Pakistan,,Pakistan,,Pakistan,,Pakistan,,,,,
001i000001PVrTs,Resources 21,Anil Bhardwaj,0065A00000WiWdy,Radio Furti 20 IP Links,OP-0012763,Bangladesh,,Bangladesh,,Bangladesh,,Bangladesh,,,,,
001i000001PVrTs,Resources 21,Anil Bhardwaj,0063100000hZz7U,OP-0012307 JAGO FM - Resource 21 Dhaka 10KW FM System 20170503JM,OP-0012307,Bangladesh,,Bangladesh,,Bangladesh,,Bangladesh,,,,,
001i000001PVoff,Horizon Broadcast LLP,Anil Bhardwaj,0063100000hGEmM,ENIL Times,OP-0012193,India,,India,,India,,India,,,,,
001i000001PVqmB,Doordarshan Bhawan,Anil Bhardwaj,0065A00000WtK2g,SITC 5 kw Digital ready UHF Tx,OP-0013555,India,,India,,India,,India,,,,,
001i000001PVqou,THREE D INTEGRATED SOLUTIONS LTD,Anil Bhardwaj,0065A00001YltRV,Repeat order of cards for FTI,OP-0019809,India,,India,,India,,India,,,,,
001i000001PVrSR,Bangladesh Betar,Anil Bhardwaj,0065A00000Wt5Tr,Bangladesh Betar Spares 15.53.0000.328.38.067.18,OP-0013435,Bangladesh,,Bangladesh,,Bangladesh,,Bangladesh,,,,,
0015A00001yQ8Hd,AKC (PVT) LTD,Anil Bhardwaj,0065A00000WuPer,"Jago FM 2 for 10 KW & 5 KW transmitter system, Resource 21 Bangladesh Dhaka",OP-0014330,Bangladesh,,Bangladesh,,Bangladesh,,Bangladesh,,,,,
001i000001PVrBR,TEK SIGNALS,Anil Bhardwaj,0065A00000WubG3,"SMC Upgarde 2 X 20 KW & 2X5 KW FM transmitter , Sharjah Media",OP-0014364,United Arab Emirates,,United Arab Emirates,,United Arab Emirates,,United Arab Emirates,,,,,
0015A00001SDWuU,Antensan Electronics,Anil Bhardwaj,0065A00000WufWq,5 KW FM Turkey,OP-0014377,Turkey,,turkey,,turkey,,turkey,,,,,
001i000001PVoff,Horizon Broadcast LLP,Anil Bhardwaj,0065A00000WufX0,5 KW Tender ETH,OP-0014378,India,,India,,India,,India,,,,,
001i000001PVrTs,Resources 21,Anil Bhardwaj,0065A00001XBPfk,1 KW with IP Link,OP-0019449,Bangladesh,,Bangladesh,,Bangladesh,,Bangladesh,,,,,
001i000001XNmeN,Horizon Electronics (FZE),Anil Bhardwaj,0065A00000WuXGv,Oman 5 +1 KW,OP-0014334,United Arab Emirates,,United Arab Emirates,,United Arab Emirates,,United Arab Emirates,,,,,
0013100001i70Uy,Radio Nepal,Anil Bhardwaj,0065A00000WuXEa,Nepal 5 KW FM transmitter Tone Z,OP-0014333,Nepal,,Nepal,,Nepal,,Nepal,,,,,
0015A000020o00R,D3 Advertising & Communications Pvt. Ltd.,Anil Bhardwaj,0065A00000WuzI7,"5 KW FM 4 systems, Pakistan",OP-0014515,Pakistan,,,,,,,,,,,
001i000001QMqHD,SUN TV NETWORK LTD.,Anil Bhardwaj,0065A00000jaaKi,10 KW replacement REDFM,OP-0015507,India,,India,,India,,India,,,,,
0015A00001SDWuU,Antensan Electronics,Anil Bhardwaj,0065A00000ibSU0,"500W, 1 KW, 2 KW, 10 KW FM transmitter Antensan",OP-0014661,Turkey,,turkey,,turkey,,turkey,,,,,
001i000001PVqjn,First Gulf Company,Anil Bhardwaj,0065A00000jTuBK,IP 200 & IP100 Saudi FGC,OP-0014623,Saudi Arabia,,Saudi Arabia,,Saudi Arabia,,Saudi Arabia,,,,,
001i000001SG1IS,Pakistan Broadcasting Corporation - Radio Pakistan,Anil Bhardwaj,0065A00000ibZF7,"Intraplex Solution 32 studio, Hedra Pakistan",OP-0014716,Pakistan,,Pakistan,,Pakistan,,Pakistan,,,,,
001i000001SG1IS,Pakistan Broadcasting Corporation - Radio Pakistan,Anil Bhardwaj,0065A00000ibXxB,"Intraplex Solution 32 studio, hedra paksitan",OP-0014712,Pakistan,,Pakistan,,Pakistan,,Pakistan,,,,,
001i000001PVrTs,Resources 21,Anil Bhardwaj,0065A00000jZkmC,IP & E1 Codec,OP-0015009,Bangladesh,,Bangladesh,,Bangladesh,,Bangladesh,,,,,
001i000001PVqa7,Abu Dhabi Media,Anil Bhardwaj,0065A00000ibaxC,"FAX 20 KW , ABU Dhabi Media",OP-0014730,United Arab Emirates,,United Arab Emirates,,United Arab Emirates,,United Arab Emirates,,,,,
001i000001PVqjn,First Gulf Company,Anil Bhardwaj,0065A00000k152Y,"5kw(5+1) FM system, FGC",OP-0014849,Saudi Arabia,,Saudi Arabia,,Saudi Arabia,,Saudi Arabia,,,,,
001i000001PVoff,Horizon Broadcast LLP,Anil Bhardwaj,0065A00000jZSTr,"OP-0014857 All India Radio Spares 3DX25, Horizon Broadcast",OP-0014857,India,,India,,India,,India,,,,,
001i000001PVqtk,Music Broadcast Private Ltd.,Anil Bhardwaj,0065A00000ibcJ0,"MBPL 10+1 KW , Horizon Broadcast",OP-0014742,India,,India,,India,,India,,,,,
001i000001PVoff,Horizon Broadcast LLP,Anil Bhardwaj,0065A00000liwva,Ghana Broadcasting,OP-0016042,India,,India,,India,,India,,,,,
0015A000020wB1m,Media Mark,Anil Bhardwaj,0065A00000lhbaz,Portable AM & FM setup,OP-0015970,Afghanistan,,Afghanistan,,Afghanistan,,,,,,,
0013100001ririC,Shock Middle East FZ-LLC,Anil Bhardwaj,0065A00000lhaJx,UAQ FAX 50,OP-0015959,United Arab Emirates,,United Arab Emirates,,United Arab Emirates,,United Arab Emirates,,,,,
001i000001PVoff,Horizon Broadcast LLP,Anil Bhardwaj,0065A00000qjLZd,LX 600 W Botswana,OP-0017136,India,,India,,India,,India,,,,,
001i000001PVoff,Horizon Broadcast LLP,Anil Bhardwaj,0065A00000qivht,10 KW + 1 KW 7 Nos Radio One,OP-0016940,India,,India,,India,,India,,,,,
001i000001PVrZF,INTERCOL (INT`L AGENCIES CO.),Anil Bhardwaj,0065A00000qhR8P,SLA & N+1 controller upgrade,OP-0016455,Bahrain,,Bahrain,,Bahrain,,Bahrain,,,,,
001i000001PVrNz,ASIA BROADCASTING CORPORATION,Anil Bhardwaj,0065A00001HMbKN,Power Supply of E1 Intraplex,OP-0017389,Sri Lanka,,Sri Lanka,,Sri Lanka,,Sri Lanka,,,,,
001i000001PVrSR,Bangladesh Betar,Anil Bhardwaj,0065A00000m9zIq,20 KW MW Betar,OP-0016358,Bangladesh,,Bangladesh,,Bangladesh,,Bangladesh,,,,,
0015A000024gPpo,Zeino Group,Anil Bhardwaj,0065A00000m9ESC,3 Nos 10 KW FM transmitter,OP-0016227,Syria,,Syria,25247,Syria,25247,,,,,,
001i000001PVqa7,Abu Dhabi Media,Anil Bhardwaj,0065A00000qhSsx,2 KW FM Transmitter,OP-0016464,United Arab Emirates,,United Arab Emirates,,United Arab Emirates,,United Arab Emirates,,,,,
001i000001PVqou,THREE D INTEGRATED SOLUTIONS LTD,Anil Bhardwaj,0065A00000mA1qR,Intraplex for FTI India Ph 4 and Ph 5,OP-0016372,India,,India,,India,,India,,,,,
0015A00002CAVKH,Axis and Digit System,Anil Bhardwaj,0065A00001HQRHo,LX 1000,OP-0018076,Bangladesh,,Bangladesh,Dhaka,Bangladesh,Dhaka,,,,,,
001i000001PVqmB,Doordarshan Bhawan,Anil Bhardwaj,0065A00001HPWOe,Upgrade Analog ULX to DVBT-2,OP-0017821,India,,India,,India,,India,,,,,
001i000001PVqtg,All India Radio,Anil Bhardwaj,0065A00001HQ6sV,100 Watt in 100 Nos in 1+1 configuration,OP-0017935,India,,India,,India,,India,,,,,
0015A00002CA7Ma,SLRC Srilanka,Anil Bhardwaj,0065A00001HQHlo,2 Nos 2 KW Analog TV transmitter,OP-0018003,Srinlanka,,Srinlanka,,Srinlanka,,,,,,,
001i000001PVqou,THREE D INTEGRATED SOLUTIONS LTD,Anil Bhardwaj,0065A00001HQasH,Intraplex FTI Ph 2,OP-0018136,India,,India,,India,,India,,,,,
0013100001jqzrQ,RGB Broadcasting,Anil Bhardwaj,0065A00000qjDua,10 KW FM transmitter,OP-0017099,India,,"Kerala , India",Kochi -,"Kerala , India",Kochi -,,,,,,
001i000001PVqtk,Music Broadcast Private Ltd.,Anil Bhardwaj,0065A00001HNCeE,MBPL 10 +1 Nagpur,OP-0017606,India,,India,,India,,India,,,,,
0015A00002IGWlk,EAP Broadcasting C. Ltd.,Anil Bhardwaj,0065A00001HQHzR,OP-0018005 EAP Srilanka,OP-0018005,Srilanka,,Srilanka,,Srilanka,,,,,,,
0013100001jqzrQ,RGB Broadcasting,Anil Bhardwaj,0065A00001XASzL,Intraplex IP 100,OP-0019191,India,,"Kerala , India",Kochi -,"Kerala , India",Kochi -,,,,,,
0015A00002CAVDf,BTV Bangladesh,Anil Bhardwaj,0065A00001XAs3z,BTV 5 Nos 5 KW Dual Cast Analog and DVBT-2,OP-0019320,Bangladesh,,Bangladesh,Rampura,Bangladesh,Rampura,,,,,,
0015A00002G2STq,Technity Systems International trading,Anil Bhardwaj,0065A00001XAs3f,IP 100 2 Nos,OP-0019319,Qatar,,Qatar,,Qatar,,,,,,,
0015A00002DzCw0,Next Radio Limited,Anil Bhardwaj,0065A00001YltRa,10 KW replacement transmitter for Mumbai,OP-0019810,India,,India,,India,,India,,,,,
0015A00002CAVKH,Axis and Digit System,Anil Bhardwaj,0065A00001Yl6Sb,Media Today 10 KW,OP-0019654,Bangladesh,,Bangladesh,Dhaka,Bangladesh,Dhaka,,,,,,
001i000001RLfnH,RADCOM Technologies (Pvt) Ltd.,Anil Bhardwaj,0065A00000jaYDc,500 W FM Tx,OP-0015483,Sri Lanka,,,,,,,,,,,
