Account ID,Account Name,Opportunity Owner,Opportunity ID,Opportunity Name,Opportunity Number,Opportunity Country (This is the shipping country),State/Province of Opportunity(This the shipping state),Shipping Country,Shipping State/Province,Billing Country,Billing State/Province,Sold To Country,Sold To State/Province
001i000001RLTpS,KAZD-TV,Avery Schultz,0063100000cTuqS,KAZD Repack ULXTE80,OP-0009510,United States,Texas,USA,TX,,,USA,TX
001i000001PVq6u,KNME-TV,Avery Schultz,0063100000cU4AY,UAXT1,OP-0009596,United States,New Mexico,USA,NM,,,USA,NM
001i000001RLU9w,KSCE-TV,Avery Schultz,0063100000cU5h0,KSCE Repack UAXT6,OP-0009613,United States,Texas,USA,TX,USA,TX,USA,TX
001i000001RLTpT,KYAZ-TV,Avery Schultz,0063100000cTvya,KYAZ Repack ULXTE40,OP-0009549,United States,Texas,USA,TX,,,USA,TX
001i000001PVqVd,KKYX-AM,Avery Schultz,0063100000cTjWg,3DX50,OP-0009357,United States,Texas,USA,TX,,,USA,TX
0015A000020nwNC,KTTZ-TV,Avery Schultz,0063100000cSXCh,KTTZ Repack ULXT80/100-Main,OP-0009191,United States,Texas,USA,TX,USA,TX,USA,TX
001i000001RLU9v,KVDA-TV,Avery Schultz,0063100000cTtZL,KVDA Repack ULXT50,OP-0009492,United States,Texas,USA,TX,USA,TX,USA,TX
001i000001RLSvB,KDTX-TV,Avery Schultz,0063100000cTvun,KDTX Repack ULXTE50,OP-0009541,United States,Texas,USA,TX,,,USA,TX
001i000001PVqsQ,KTXD-TV,Avery Schultz,0063100000cTvvb,KTXD Repack ULXTE24,OP-0009544,United States,Texas,USA,TX,USA,TX,USA,TX
001i000001RLU1R,KFXK-TV,Avery Schultz,0063100000cTjlq,KFXK Repack ULXTE 60,OP-0009375,United States,Texas,USA,TX,USA,TX,USA,TX
001i000001PVolG,KPBT-TV/DT,Avery Schultz,0063100000cTtaT,KPBT Repack ULXTE24,OP-0009494,United States,Texas,USA,TX,,,USA,TX
001i000001RLSv6,KITU-TV,Avery Schultz,0063100000cTtk4,KITU Repack ULXT60,OP-0009497,United States,Texas,USA,TX,,,USA,TX
001i000001PVqLZ,KOET-TV,Avery Schultz,0063100000cTjhy,KOET ULXTE60,OP-0009369,United States,Oklahoma,USA,OK,,,USA,OK
001i000001PVrep,KOAT-TV,Avery Schultz,0063100000dO9W6,UAXT-1R44 Installation,OP-0009978,United States,New Mexico,USA,NM,USA,NM,USA,NM
0013100001q9se2,KBIJ FM,Avery Schultz,0063100000fjcha,FAX20,OP-0011412,United States,Oklahoma,,OK,USA,TX,,
0013100001ont36,KHLB FM,Avery Schultz,0063100000fgAOW,FAX10K,OP-0011107,United States,Texas,USA,TX,USA,TX,,
0013100001ooK6b,KSQX FM,Avery Schultz,0063100000fgBz5,FAX20KFAX50,OP-0011108,United States,Texas,USA,TX,USA,TX,,
001i000001RLSsW,KRZI-AM,Avery Schultz,0063100000fjD95,DX10,OP-0011353,United States,Texas,USA,TX,,,USA,TX
0013100001pVNQO,KUGB-CD,Avery Schultz,0063100000fhuz5,KUGBUAXTE8/12,OP-0011250,United States,Texas,USA,TX,USA,TX,USA,TX
001i000001RLSpz,KKLF-AM,Avery Schultz,0065A00000i0e05,DEXSTAR,OP-0013263,United States,Texas,USA,TX,,IL,USA,TX
0013100001s7qXU,KXTQ-TV,Avery Schultz,0063100000hFpuX,KXTQ Repack UAXTE-2,OP-0011993,United States,Texas,USA,TX,USA,TX,,
001i000001PVqpg,KJAV-FM R COMMUNICATIONS,Avery Schultz,0063100000gSqLK,GA OP-0011685 FAX5KFAX150,OP-0011685,United States,Texas,USA,TX,USA,TX,USA,TX
001i000001RLSsN,KSII-FM,Avery Schultz,0065A00000WitZt,KSII FAX30FAX50HD,OP-0012976,United States,Texas,USA,TX,,,USA,TX
001i000001RLTuZ,KTEN-TV,Avery Schultz,0065A00000WitOb,KTEN-ULXTE-72 Repack,OP-0012971,United States,Texas,USA,TX,USA,TX,USA,TX
001i000001QMq5M,KXAS-TV,Avery Schultz,0063100000hFzQI,KXAS Repack ULXTE-72,OP-0012096,United States,Texas,USA,TX,USA,TX,USA,TX
001i000001RLTfB,KLEG-TV,Avery Schultz,0063100000hFwbh,KLEG Repack UAXTE-3,OP-0012064,United States,Texas,USA,TX,USA,TX,USA,TX
001i000001PVrZt,KNIC-TV,Avery Schultz,0063100000hFwcG,KNIC Repack ULXTE-50,OP-0012065,United States,Texas,USA,TX,USA,TX,USA,TX
001i000001RLTXr,KXLK-TV,Avery Schultz,0063100000hFzUA,KXLK Repack UAXTE-8,OP-0012097,United States,Texas,USA,TX,USA,TX,USA,TX
001i000001PVrgv,KUVN-TV,Avery Schultz,0063100000hFzMP,KUVN Repack ULXTE-50,OP-0012093,United States,Texas,USA,TX,USA,TX,USA,TX
001i000001RLTUS,KHTV-TV,Avery Schultz,0063100000hFtcu,KHTV Repack UAXTE-2,OP-0012022,United States,Texas,USA,TX,USA,TX,USA,TX
0013100001sHFvI,KOHC TV,Avery Schultz,0063100000hFwEg,KOHC Repack UAXTE-3,OP-0012057,United States,Oklahoma,USA,OK,USA,OK,,
001i000001PVqKY,KJSR-FM,Avery Schultz,0065A00000WiOOb,FLX30KFAX50HD,OP-0012644,United States,Oklahoma,USA,OK,,,USA,OK
001i000001PVq6t,KENW-TV,Avery Schultz,0065A00000i0UIm,KENWUAXTE2/3,OP-0013192,United States,New Mexico,USA,NM,,,USA,NM
001i000001RLU5q,KKWD-FM,Avery Schultz,0063100000hEzwx,KKWDFAX5FAX150HD,OP-0011912,United States,Oklahoma,USA,OK,,,USA,OK
0015A00001Zz4pX,KHML FM,Avery Schultz,0065A00000WiUwf,FAX30/FLX30FAX50,OP-0012737,United States,Texas,USA,TX,USA,TX,,
0013100001jqYmQ,KNCT-TV,Avery Schultz,0063100000hGLas,KNCT-Repack-ULXTE50,OP-0012244,United States,Texas,USA,TX,USA,TX,USA,TX
0013100001jqYmj,KTDO-TV,Avery Schultz,0063100000hGMVX,KTDO-Repack-ULXTE-24,OP-0012247,United States,Texas,USA,TX,USA,TX,USA,TX
001i000001RLTLk,KTLM-TV CH 40,Avery Schultz,0063100000hGMZt,KTLM-Repack-ULXTE-30,OP-0012248,United States,Texas,USA,TX,USA,TX,USA,TX
0015A00001ZzSyN,K29HB-D,Avery Schultz,0065A00000WioNr,K29HB-D 200W UAXTE/UAXT,OP-0012943,United States,Texas,USA,TX,USA,TX,,
001i000001PVrfn,KOTV-TV,Avery Schultz,0065A00000i0UU6,KOTV Repack Main ULXTE-100,OP-0013195,United States,Oklahoma,USA,OK,USA,OK,USA,OK
001i000001PVqTv,KTSU-FM,Avery Schultz,0065A00000Wj6Ot,HDI200/HDE200,OP-0013095,United States,Texas,USA,TX,,,USA,TX
001i000001QNhGn,Navajo Technical College,Avery Schultz,0065A00000WjBKS,Navajo Technical College UAXT 250 retune,OP-0013115,United States,New Mexico,,,,NM,,
001i000001PVqVB,KGLK-FM,Avery Schultz,0065A00000WjC8I,KGLKFMFLX60FAX50HD,OP-0013127,United States,Texas,USA,TX,,,USA,TX
001i000001PVq6u,KNME-TV,Avery Schultz,0065A00000Wt8M0,ULXTE-72,OP-0013470,United States,New Mexico,USA,NM,,,USA,NM
0015A00002EXd6c,KGID-FM,Avery Schultz,0065A00000i0kPl,FAX5KFAX150HD,OP-0013309,United States,Texas,USA,TX,,TX,USA,TX
001i000001PVopp,KRZY-FM,Avery Schultz,0065A00000i0fm7,FAX30FAX50,OP-0013276,United States,New Mexico,USA,NM,,,USA,NM
0015A00002DgP61,KRNR -FM,Avery Schultz,0065A00001WP2Kj,KRNR 1kW FM,OP-0018529,United States,Texas,,Texas,,,,
001i000001PVqU3,KVET-FM,Avery Schultz,0065A00001WP2Ni,KVET FAX500 HD,OP-0018530,United States,Texas,USA,TX,,,USA,TX
001i000001PVq6u,KNME-TV,Avery Schultz,0065A00000Wt8Nh,KNME-TV,OP-0013471,United States,New Mexico,USA,NM,,,USA,NM
0015A00001tI8rU,KROB AM,Avery Schultz,0065A00000i0e3E,DAX1,OP-0013264,United States,Texas,USA,TX,USA,TX,,
001i000001RLT4W,KTWL-FM,Avery Schultz,0065A00000WuaRY,IP link 100 and 200,OP-0014362,United States,Texas,USA,TX,USA,TX,USA,TX
001i000001RLU1N,KDFI-TV,Avery Schultz,0065A00000WusI8,KDFI Site Survey,OP-0014461,United States,Texas,USA,TX,USA,TX,USA,TX
001i000001PVqTv,KTSU-FM,Avery Schultz,0065A00001HMxby,KTSU FAX20KHD,OP-0017495,United States,Texas,USA,TX,,,USA,TX
001i000001PVqWw,KLZT-FM,Avery Schultz,0065A00000qhtG6,KLZT FMXi 4G,OP-0016623,United States,Texas,USA,TX,,,USA,TX
001i000001PVqWJ,KZMJ-FM,Avery Schultz,0065A00000qjQmU,KZMJ FAX80HD,OP-0017146,United States,Texas,USA,TX,,,USA,TX
001i000001PVqVi,KRYS-FM,Avery Schultz,0065A00000qit1u,KRYS FAX20KFAX50,OP-0016916,United States,Texas,USA,TX,,,USA,TX
001i000001PVp8r,KETX-FM,Avery Schultz,0065A00001HQEFa,KETX FAX100HD,OP-0017977,United States,Texas,USA,TX,,,USA,TX
001i000001PVqTw,KSYM-FM,Avery Schultz,0065A00000qj5Eh,KSYM FAX3.75FAX50HD,OP-0017060,United States,Texas,USA,TX,,,USA,TX
001i000001PVqUZ,KCYY-FM,Avery Schultz,0065A00001HNN8B,spare exciter,OP-0017701,United States,Texas,USA,TX,,,USA,TX
0013100001hDhPf,KUTX,Avery Schultz,0063100000c3bMf,FAX20HD,OP-0009074,United States,Texas,USA,TX,USA,TX,,
001i000001PVqsO,KTFM-FM,Avery Schultz,0063100000c2waZ,FAX10HD,OP-0008889,United States,Texas,USA,TX,USA,TX,USA,TX
001i000001PVqVN,KMVK-FM,Avery Schultz,0063100000dfh0j,FAX5FAX150,OP-0010173,United States,Texas,USA,TX,,,USA,TX
001i000001PVqXo,KWBT-FM,Avery Schultz,0063100000dfNAF,FAX3,OP-0010091,United States,Texas,USA,TX,,,USA,TX
0015A00001SCE4g,KOPX-TV,Avery Schultz,0063100000eDiDv,KOPX Repack Planning ULXT-24,OP-0010540,United States,Oklahoma,USA,OK,USA,OK,USA,OK
0013100001mNG9r,KJXK FM,Avery Schultz,0063100000eEE7p,FAX50/150EXCITER,OP-0010631,United States,Texas,USA,TX,USA,TX,,
001i000001PVqKg,KRXO-FM,Avery Schultz,006i000000VRlTw,FAX10,OP-0002513,United States,Oklahoma,USA,OK,,,USA,OK
001i000001PVqKm,KOSU,Avery Schultz,006i000000VRlTx,KOSU HD Upgrade,OP-0002514,United States,Oklahoma,USA,OK,,,USA,OK
001i000001PVqKO,KUCO-FM,Avery Schultz,006i000000VRlTy,FLX40KFAX50HD,OP-0002515,United States,Oklahoma,USA,OK,,,USA,OK
001i000001PVqKX,WWLS-FM,Avery Schultz,006i000000VRlU0,Importer / Exporter,OP-0002517,United States,Oklahoma,USA,OK,,,USA,OK
001i000001PVqlO,KOB-TV,Avery Schultz,006i000000VRlU4,ULXT-20AT,OP-0002521,United States,New Mexico,USA,NM,USA,NM,USA,NM
001i000001PVqLX,KMYT-TV,Avery Schultz,006i000000VRlU6,KMYT Repack Aux ULXT-50AT Ch Chg,OP-0002523,United States,Oklahoma,USA,OK,,,USA,OK
001i000001PVqUi,KBXX-FM,Avery Schultz,006i000000VRlUS,FAX20,OP-0002545,United States,Texas,USA,TX,,,USA,TX
001i000001PVqWK,KBFB-FM,Avery Schultz,006i000000VRlUY,FAX5,OP-0002551,United States,Texas,USA,TX,,,USA,TX
001i000001PVqWK,KBFB-FM,Avery Schultz,006i000000VRlUZ,FAX60,OP-0002552,United States,Texas,USA,TX,,,USA,TX
001i000001PVqWK,KBFB-FM,Avery Schultz,006i000000VRlUa,HPX80,OP-0002553,United States,Texas,USA,TX,,,USA,TX
001i000001PVqXR,KTXH-TV,Avery Schultz,006i000000VRlUe,ULXT-50AT,OP-0002557,United States,Texas,USA,TX,,,USA,TX
001i000001PVpEo,Liberman Broadcasting Inc,Avery Schultz,0063100000hahWJ,"KTJM,KJOJ,KQQK HD Links",OP-0012453,United States,Texas,USA,TX,USA,TX,USA,TX
001i000001PVqW1,KUHF-FM,Avery Schultz,0065A00000jZudz,OP-0015108 BID FLX FM transmitter,OP-0015108,United States,Texas,USA,TX,,,USA,TX
001i000001RLSsL,KLAQ-FM,Avery Schultz,0065A00001XB04l,KLAQ - FMXi-4g,OP-0019338,United States,Texas,USA,TX,,WI,USA,TX
001i000001QMq5G,KAVU-TV,Avery Schultz,0065A00001XAzhw,KAVU - channel change & proof,OP-0019336,United States,Texas,USA,TX,,,USA,TX
001i000001PVqUK,KLIF-FM,Avery Schultz,0063100000axj4U,HDE200/HDI200,OP-0008228,United States,Texas,USA,TX,,,USA,TX
001i000001QNhGy,HISPANIC CHRISTIAN COMMUNITY NETWORK,Avery Schultz,006i000000W83u8,KGKC UAX,OP-0005841,United States,Kentucky,,,,TX,,
0013100001pAYTI,KVNE-FM,Avery Schultz,006i000000W83st,HPX40FAX50,OP-0005764,United States,Texas,USA,TX,,,USA,TX
001i000001PVqp3,KSJT-FM / LA UNICA BROADCASTING CO.,Avery Schultz,006i000000W83t7,FAX10,OP-0005778,United States,Texas,USA,TX,USA,TX,USA,TX
001i000001QNhGU,KKNM,Avery Schultz,006i000000W83t8,FAX20,OP-0005779,United States,Texas,,,,TX,,
001i000001QNhGb,KQOB-FM,Avery Schultz,006i000000W83tD,HPX30FLX,OP-0005784,United States,Oklahoma,,,,OK,,
001i000001QNhHQ,KTRL-FM,Avery Schultz,006i000000W83tZ,FAX3.5,OP-0005806,United States,Texas,,,,TX,,
0013100001btXmc,KKXT-FM,Avery Schultz,0063100000c3bGN,FAX3HD,OP-0009073,United States,Texas,USA,TX,USA,TX,,
001i000001PVq72,KRWG-TV,Avery Schultz,0063100000ezVS5,UAXT12,OP-0010804,United States,New Mexico,USA,NM,,,USA,NM
0013100001cNBYI,KOOP,Avery Schultz,0063100000a8QbH,FAX5KHD,OP-0007643,United States,Texas,USA,TX,USA,TX,,
0013100001pJkrM,KFYN FM,Avery Schultz,0065A00001HQ54v,KFYN FAX20HD,OP-0017928,United States,Texas,USA,TX,USA,TX,,
001i000001PVrgl,KSAT-TV,Avery Schultz,006i000000VRlWg,VAX Replacement,OP-0002676,United States,Texas,USA,TX,USA,TX,USA,TX
001i000001PVrgl,KSAT-TV,Avery Schultz,006i000000VRlWh,VAX 24,OP-0002677,United States,Texas,USA,TX,USA,TX,USA,TX
001i000001PVp6F,Entravision Communications Corp.,Avery Schultz,006i000000VRlWq,CH 45 K10OG,OP-0002686,United States,Texas,,,USA,TX,USA,TX
001i000001PVq6u,KNME-TV,Avery Schultz,006i000000VRlXG,30w Transmitter,OP-0002712,United States,New Mexico,USA,NM,,,USA,NM
001i000001PVq6u,KNME-TV,Avery Schultz,006i000000VRlXH,Transmitter,OP-0002713,United States,New Mexico,USA,NM,,,USA,NM
001i000001PVqUa,KRBE-FM,Avery Schultz,006i000000VRlXe,KRBE HD,OP-0002736,United States,Texas,USA,TX,,,USA,TX
001i000001PVqWJ,KZMJ-FM,Avery Schultz,006i000000VRlZq,FAX20,OP-0002863,United States,Texas,USA,TX,,,USA,TX
001i000001PVqWJ,KZMJ-FM,Avery Schultz,006i000000VRlZr,HPX20,OP-0002864,United States,Texas,USA,TX,,,USA,TX
001i000001PVqXQ,KRIS-TV,Avery Schultz,006i000000VRlbf,KRIS Filter,OP-0002976,United States,Texas,USA,TX,,,USA,TX
0013100001pJkrM,KFYN FM,Avery Schultz,0065A00001HQ52K,KFYN FAX30HD,OP-0017927,United States,Texas,USA,TX,USA,TX,,
001i000001PVpjR,KWHB-TV,Avery Schultz,0063100000cTvxS,KWHB Repack 10kW transmitter,OP-0009547,United States,Oklahoma,USA,OK,,,USA,OK
001i000001RLSsy,KRVL-FM,Avery Schultz,0063100000c2wWI,3kW,OP-0008886,United States,Texas,USA,TX,,,USA,TX
001i000001PVopu,KVSP-FM,Avery Schultz,0063100000a9bZP,FLX40FAX50,OP-0007739,United States,Oklahoma,USA,OK,,,USA,OK
001i000001PVosr,KTMC-AM,Avery Schultz,006i000000W82yT,ZX2500/DAX1/DAX1R,OP-0005625,United States,Oklahoma,USA,OK,,,USA,OK
001i000001PVqVd,KKYX-AM,Avery Schultz,006i000000W82yZ,FAX1KINT Translator,OP-0005631,United States,Texas,USA,TX,,,USA,TX
001i000001PVqKt,KTLS-FM,Avery Schultz,006i000000W82xn,FAX10,OP-0005583,United States,Oklahoma,USA,OK,,,USA,OK
001i000001PVqKe,KTST-FM,Avery Schultz,0063100000bxlre,FAX500,OP-0008765,United States,Oklahoma,USA,OK,,,USA,OK
001i000001RLTnJ,KPXD-DT,Avery Schultz,0063100000a7OMD,KPXD Repack Planning ULXTE-60,OP-0007488,United States,Texas,USA,TX,,,USA,TX
001i000001PVqZw,SCMS Incorporated,Avery Schultz,0065A00000ja8yq,SCMS KJST UAXTE-4,OP-0015251,United States,North Carolina,USA,NC,USA,NC,USA,NC
001i000001PVqKy,KWGS-FM,Avery Schultz,0063100000dp4ze,HDI200IMPORTER,OP-0010203,United States,Oklahoma,USA,OK,,,USA,OK
001i000001PVqW1,KUHF-FM,Avery Schultz,0063100000YKAqF,FAX80HD,OP-0006540,United States,Texas,USA,TX,,,USA,TX
001i000001RLSsy,KRVL-FM,Avery Schultz,0063100000cStPv,FAX3.5kW,OP-0009261,United States,Texas,USA,TX,,,USA,TX
0013100001aLFNZ,KKHA FM,Avery Schultz,0063100000YsFPE,FAX10,OP-0006832,United States,Texas,USA,TX,USA,TX,,
001i000001PVqKk,KMOD-FM,Avery Schultz,0063100000YsYUU,FAX30HD,OP-0006888,United States,Oklahoma,USA,OK,,,USA,OK
001i000001PVqKu,KTGX-FM,Avery Schultz,0063100000YsYUy,FAX30HD,OP-0006889,United States,Oklahoma,USA,OK,,,USA,OK
001i000001RLU5i,KALU-FM,Avery Schultz,0063100000ZYrbw,FAX50,OP-0007121,United States,Oklahoma,USA,OK,,,USA,OK
001i000001PVqUZ,KCYY-FM,Avery Schultz,006i000000YIFRj,HD Upgrade,OP-0006415,United States,Texas,USA,TX,,,USA,TX
001i000001PVrgy,KUBE-TV,Avery Schultz,0063100000hH3yU,KUBE-TV Site Survey,OP-0012287,United States,Texas,USA,TX,USA,TX,USA,TX
001i000001PVqUC,KHKS-FM,Avery Schultz,0063100000ZQdPp,FAX40,OP-0007002,United States,Texas,USA,TX,,,USA,TX
0013100001abmqZ,KMGZ,Avery Schultz,0063100000Yfvoa,FAX10HD,OP-0006731,United States,Oklahoma,USA,OK,USA,OK,,
001i000001PVq6X,KMVR-FM,Avery Schultz,0063100000Yfw7D,FAX3FAX50HD,OP-0006732,United States,New Mexico,USA,NM,,,USA,NM
001i000001PVqTl,KMJQ-FM,Avery Schultz,0063100000YsItI,FAX60HD,OP-0006836,United States,Texas,USA,TX,,,USA,TX
001i000001PVqWG,KZPS-FM,Avery Schultz,0063100000ZQhLV,FAX40,OP-0007023,United States,Texas,USA,TX,,,USA,TX
001i000001RLU5i,KALU-FM,Avery Schultz,0063100000ZYw2b,FAX300,OP-0007144,United States,Oklahoma,USA,OK,,,USA,OK
001i000001RLSuZ,KVRX-FM,Avery Schultz,0063100000avo39,FAX3.5INTHD,OP-0007922,United States,Texas,USA,TX,,,USA,TX
001i000001PVqVU,KONO-AM,Avery Schultz,0063100000a9wnw,AM Transmitter Options,OP-0007781,United States,Texas,USA,TX,,,USA,TX
001i000001PVqKI,KBEZ-FM,Avery Schultz,0063100000ZYCbj,FAX10,OP-0007049,United States,Oklahoma,USA,OK,,,USA,OK
001i000001PVrgV,KZJL-TV,Avery Schultz,0063100000cTvrt,KZLJ Repack ULXTE 72,OP-0009538,United States,Texas,USA,TX,USA,TX,USA,TX
001i000001RLTpU,"KTBU-TV; Tegna, Inc.",Avery Schultz,0063100000cTvpY,KTBU Repack ULXTE40,OP-0009530,United States,Texas,USA,TX,USA,TX,USA,TX
001i000001PVqWX,KEGL-FM,Avery Schultz,0063100000ZQhQG,HARFAX40FAX50,OP-0007024,United States,Texas,USA,TX,,,USA,TX
001i000001PVrgy,KUBE-TV,Avery Schultz,0063100000cTvok,KUBE Repack ULXTE72,OP-0009525,United States,Texas,USA,TX,USA,TX,USA,TX
001i000001PVq6t,KENW-TV,Avery Schultz,0063100000cTkD6,KENW Repack UAXT8,OP-0009384,United States,New Mexico,USA,NM,,,USA,NM
001i000001PVqL8,KADA-FM,Avery Schultz,0063100000dMypI,FAX500,OP-0009695,United States,Oklahoma,USA,OK,,,USA,OK
0013100001cNAtt,KXTX-TV,Avery Schultz,0063100000cTuvX,KXTX Repack ULXT60,OP-0009516,United States,Texas,USA,TX,USA,TX,USA,TX
001i000001PVrgo,KUHT-TV,Avery Schultz,0063100000dNeue,OP-0009894 MaxivaXTE,OP-0009894,United States,Texas,USA,TX,USA,TX,USA,TX
001i000001RLSuZ,KVRX-FM,Avery Schultz,0063100000avo3d,FAX5FAX150HD,OP-0007924,United States,Texas,USA,TX,,,USA,TX
001i000001RLU8Y,KUOK-TV,Avery Schultz,0063100000cTw81,KUOK Repack UAXT1,OP-0009562,United States,Oklahoma,USA,OK,USA,OK,USA,OK
001i000001PVrgw,KTMD-TV,Avery Schultz,0063100000cTvzd,KTMD Repack ULXT60,OP-0009552,United States,Texas,USA,TX,USA,TX,USA,TX
001i000001RLSv9,KMLM-TV,Avery Schultz,0063100000cTvpT,KMLM Repack UAXTE2,OP-0009529,United States,Texas,USA,TX,,,USA,TX
001i000001RLU90,KEYU-TV,Avery Schultz,0063100000cTjhe,KEYU ULXT80,OP-0009368,United States,Texas,USA,TX,USA,TX,USA,TX
001i000001PVqVU,KONO-AM,Avery Schultz,0063100000cTjbl,DAX5,OP-0009362,United States,Texas,USA,TX,,,USA,TX
0015A00001SDTux,KRSU-TV,Avery Schultz,0063100000cTtUv,KRSU Repack UAXTE6/8,OP-0009488,United States,Oklahoma,USA,OK,USA,OK,USA,OK
001i000001PVpPX,BRYAN BROADCASTING,Avery Schultz,0063100000dfN9v,FAX5FAX150,OP-0010090,United States,Texas,USA,TX,USA,TX,USA,TX
001i000001PVqKl,KTBT-FM,Avery Schultz,0063100000df8aC,FAX10FAX50HD,OP-0010049,United States,Oklahoma,USA,OK,,,USA,OK
001i000001PVqoe,KCTX,Avery Schultz,0063100000dfeSj,FAX10FAX50,OP-0010171,United States,Texas,USA,TX,USA,TX,USA,TX
001i000001PVqWX,KEGL-FM,Avery Schultz,0063100000df8aX,FAX5FAX150HD,OP-0010051,United States,Texas,USA,TX,,,USA,TX
001i000001PVqKd,KBRU-FM,Avery Schultz,0063100000dfQsx,FAX40FAX50HD,OP-0010100,United States,Oklahoma,USA,OK,,,USA,OK
001i000001PVrkc,KTEK-AM,Avery Schultz,0063100000dN74g,IPL100,OP-0009792,United States,Texas,USA,TX,USA,TX,USA,TX
001i000001PVq6U,KKOB-AM,Avery Schultz,0063100000dpYMd,3DX50,OP-0010286,United States,New Mexico,USA,NM,,,USA,NM
001i000001PVrgo,KUHT-TV,Avery Schultz,0063100000dNlWg,OP-0009919 VHF KUHT-TV,OP-0009919,United States,Texas,USA,TX,USA,TX,USA,TX
001i000001PVqWn,KSMG-FM,Avery Schultz,0063100000dO9qp,FAX50HD,OP-0009980,United States,Texas,USA,TX,,,USA,TX
001i000001PVqsO,KTFM-FM,Avery Schultz,0063100000dN74l,FAX30/FAX10,OP-0009793,United States,Texas,USA,TX,USA,TX,USA,TX
001i000001QMq5E,KJKK-FM,Avery Schultz,0063100000dfgx1,FAX10FAX50X4,OP-0010172,United States,Texas,USA,TX,,,USA,TX
0013100001m5xDP,KBPX-LD,Avery Schultz,0063100000eDgBo,KBPX Repack Planning UAXTE-1,OP-0010529,United States,Texas,,TX,,TX,,
001i000001PVqWX,KEGL-FM,Avery Schultz,0063100000df8aS,HDLink,OP-0010050,United States,Texas,USA,TX,,,USA,TX
001i000001RLT50,KLCW-TV / KXTQ-TV / KMYL-TV,Avery Schultz,0063100000hFkjW,KLCW Repack UAXTE 8,OP-0011947,United States,Texas,USA,TX,USA,TX,USA,TX
001i000001PVqKT,KGOU-FM,Avery Schultz,0065A000019mTta,KGOU FAX5,OP-0017296,United States,Oklahoma,USA,OK,,,USA,OK
001i000001PVqsO,KTFM-FM,Avery Schultz,0063100000hEBqw,FLX20FAX50HD,OP-0011830,United States,Texas,USA,TX,USA,TX,USA,TX
001i000001RLTBx,KUVM-TV,Avery Schultz,0063100000hFvp6,KUVM Repack UAXTE-4,OP-0012048,United States,Texas,USA,TX,USA,TX,USA,TX
001i000001RLU6G,KDOR-TV,Avery Schultz,0063100000hFtIs,KDOR Repack ULXTE-72,OP-0012018,United States,Oklahoma,USA,OK,,,USA,OK
0013100001jqYmL,KOCM-TV,Avery Schultz,0063100000hFwFC,KOCM Repack UAXTE 8,OP-0012058,United States,Texas,USA,TX,,,USA,TX
0013100001sHOmH,KGMM TV,Avery Schultz,0063100000hFwa5,KGMM Repack UAXTE-6,OP-0012060,United States,Texas,,,,,,
0013100001jqYmW,KWBN-TV,Avery Schultz,0063100000hFvjN,KWBN Repack UAXTE-1-P2,OP-0012047,United States,Texas,USA,TX,USA,TX,USA,TX
0015A000020nwNC,KTTZ-TV,Avery Schultz,0063100000hFphE,KTTZ Repack ULXT80/100-Backup,OP-0011992,United States,Texas,USA,TX,USA,TX,USA,TX
0013100001rxJRu,KCHT FM,Avery Schultz,0063100000hEsuz,FAX5KFAX150,OP-0011886,United States,Texas,USA,TX,USA,TX,,
001i000001PVqXL,KVUE-TV,Avery Schultz,0065A00000Wicx2,KVUE ULXTED100/160,OP-0012835,United States,Texas,USA,TX,,,USA,TX
0015A00001wwlQy,KTNM AM,Avery Schultz,0065A00000i0g7K,DAX1,OP-0013278,United States,New Mexico,USA,NM,USA,NM,,
001i000001PVp8i,KBRN-AM,Avery Schultz,0065A00000i0iHC,Frequency Change,OP-0013294,United States,Texas,USA,TX,,,USA,TX
001i000001PVrgd,KFDA-TV,Avery Schultz,0065A00000WtZS6,KFDAUAXTE-50,OP-0013702,United States,Texas,USA,TX,USA,TX,USA,TX
001i000001RLSvA,KMKS-FM,Avery Schultz,0065A00000WtdYE,KMKS FAX20,OP-0013745,United States,Texas,USA,TX,,,USA,TX
001i000001PVqVD,KTCK-AM,Avery Schultz,0065A00000qhpcN,IP 200,OP-0016611,United States,Texas,USA,TX,,,USA,TX
001i000001PVqVR,KRLD-FM,Avery Schultz,0065A00000WtXOU,HDLink,OP-0013679,United States,Texas,USA,TX,,,USA,TX
001i000001PVrgd,KFDA-TV,Avery Schultz,0065A00000WtiOo,KFDATVVAXTE8,OP-0013760,United States,Texas,USA,TX,USA,TX,USA,TX
001i000001PVqWM,KNTU-FM,Avery Schultz,0065A00000ibfzy,OP-0014786 FAX20K,OP-0014786,United States,Texas,USA,TX,,,USA,TX
001i000001PVrgj,KPRC-TV,Avery Schultz,0065A00000jZXQr,KPRC TV Ch35 ULXTE-150,OP-0014897,United States,Texas,USA,TX,USA,TX,USA,TX
001i000001RLStF,KLIF-AM,Avery Schultz,0065A00000qhryP,KLIF AM IP 200 PKG,OP-0016617,United States,Texas,USA,TX,,,USA,TX
001i000001PVsB3,"ICA BROADCASTING 1, LTD.",Avery Schultz,0065A00001XB5rs,ICA FAX20,OP-0019362,United States,Texas,USA,TX,USA,TX,USA,TX
001i000001PVqVd,KKYX-AM,Avery Schultz,0065A00000qhySk,KKYX AM Output Board DX-50,OP-0016654,United States,Texas,USA,TX,,,USA,TX
001i000001RLSup,KZRK-FM,Avery Schultz,0065A00000qicO2,KZRK FAX20,OP-0016802,United States,Texas,USA,TX,,,USA,TX
001i000001PVqXR,KTXH-TV,Avery Schultz,0065A00000qi9nj,Q 79914 KTXH ULXTE 150,OP-0016713,United States,Texas,USA,TX,,,USA,TX
001i000001PVqVD,KTCK-AM,Avery Schultz,0065A00000qhryj,KTCK AM - IP 200 PKG,OP-0016618,United States,Texas,USA,TX,,,USA,TX
001i000001PVpvT,KRIV-TV,Avery Schultz,0065A00000qi9rM,Q 79893 KRIV ULXTE-150,OP-0016715,United States,Texas,USA,TX,USA,NY,USA,NY
001i000001RLStF,KLIF-AM,Avery Schultz,0065A00000qhrJK,KLIF AM IP 200,OP-0016615,United States,Texas,USA,TX,,,USA,TX
001i000001PVqWJ,KZMJ-FM,Avery Schultz,0065A000019mEhk,KZMJ FLX60HD,OP-0017181,United States,Texas,USA,TX,,,USA,TX
001i000001PVq6u,KNME-TV,Avery Schultz,0065A00001HNIyC,KNME VAXTE-8,OP-0017672,United States,New Mexico,USA,NM,,,USA,NM
0015A00002DfT61,KOME FM,Avery Schultz,0065A00001HQgxj,KOME-FM FAX5,OP-0018201,United States,texas,united states,texas,,,,
001i000001PVq72,KRWG-TV,Avery Schultz,0065A00001YlZNF,KRWG cable part,OP-0019747,United States,New Mexico,USA,NM,,,USA,NM
001i000001PVqKv,KVOO-FM,Avery Schultz,0065A00001YmC6r,KVOO FMXi 4G,OP-0019892,United States,Oklahoma,USA,OK,,,USA,OK
0013100001hDhPf,KUTX,Avery Schultz,0063100000c3bNn,FAX2KINTHD,OP-0009075,United States,Texas,USA,TX,USA,TX,,
001i000001RLSv0,KMBH-TV,Avery Schultz,0063100000cTtbH,KMBH Repack ULXTE-60,OP-0009495,United States,Texas,USA,TX,USA,TX,USA,TX
001i000001PVqVN,KMVK-FM,Avery Schultz,006i000000W82z6,Intraplex 4113,OP-0005664,United States,Texas,USA,TX,,,USA,TX
001i000001PVqsK,KTSM-TV,Avery Schultz,006i000000W82ys,ULX 14300 KTSM,OP-0005650,United States,Texas,USA,TX,USA,TX,USA,TX
001i000001PVrgx,KXLN-TV,Avery Schultz,0063100000Ze0ei,Repack KXLN ULXT50,OP-0007454,United States,Texas,USA,TX,USA,TX,USA,TX
001i000001PVpvT,KRIV-TV,Avery Schultz,006i000000VRlRS,"ULXT-60, Budgetary request",OP-0002365,United States,Texas,USA,TX,USA,NY,USA,NY
001i000001PVpvT,KRIV-TV,Avery Schultz,006i000000VRlRT,Sigma de-install for KRIV & KTXH,OP-0002366,United States,Texas,USA,TX,USA,NY,USA,NY
001i000001PVpwD,"KXXV-TV, Scripps Media Company",Avery Schultz,006i000000VRlRU,ULXT-30AT,OP-0002367,United States,Texas,USA,TX,USA,TX,USA,TX
0013100001pIkmu,KKGM FM,Avery Schultz,0063100000fhBUg,DX10,OP-0011192,United States,Texas,USA,TX,USA,TX,,
0013100001nGpt7,KNUW FM,Avery Schultz,0063100000eziCl,FAX5FAX150,OP-0010819,United States,New Mexico,USA,NM,USA,NM,,
001i000001PVqXT,KFTH-TV,Avery Schultz,0063100000a7O15,Repack KFTH ULXT40,OP-0007470,United States,Texas,USA,TX,,,USA,TX
001i000001PVrgj,KPRC-TV,Avery Schultz,0063100000bNEkw,KPRC Repack Planning ULXT-80AT,OP-0008430,United States,Texas,USA,TX,USA,TX,USA,TX
001i000001PVqKk,KMOD-FM,Avery Schultz,006i000000W7vjF,ZX1000,OP-0005070,United States,Oklahoma,USA,OK,,,USA,OK
001i000001QMpd6,KGEB-TV,Avery Schultz,006i000000W7vjR,KGEB Repack VAXTE-6,OP-0005082,United States,Oklahoma,USA,OK,USA,OK,USA,OK
001i000001QMpjn,KMMZ-FM,Avery Schultz,006i000000W7vjS,FAX30,OP-0005083,United States,Texas,USA,TX,,,USA,TX
001i000001QMpjw,KTXC-FM,Avery Schultz,006i000000W7vjT,FAX30FAX50,OP-0005084,United States,Texas,USA,TX,USA,TX,USA,TX
001i000001QMpxt,KYIS-FM,Avery Schultz,006i000000W7vjU,Flexiva 10K,OP-0005085,United States,Oklahoma,USA,OK,,,USA,OK
001i000001RLSsL,KLAQ-FM,Avery Schultz,0065A00001XB1bE,KLAQ - cables,OP-0019346,United States,Texas,USA,TX,,WI,USA,TX
001i000001PVpni,"KSTR-TV Univision Communications, Inc.",Avery Schultz,0063100000a7NvC,Repack KSTR ULXT 40,OP-0007464,United States,Texas,USA,TX,USA,TX,USA,TX
001i000001PVqpg,KJAV-FM R COMMUNICATIONS,Avery Schultz,0063100000a7U34,HDLink,OP-0007509,United States,Texas,USA,TX,USA,TX,USA,TX
001i000001PVqWn,KSMG-FM,Avery Schultz,0063100000bN1b3,FAX1INT,OP-0008395,United States,Texas,USA,TX,,,USA,TX
001i000001PVqWn,KSMG-FM,Avery Schultz,0063100000bN1bm,FAX2INT,OP-0008396,United States,Texas,USA,TX,,,USA,TX
001i000001PVqlt,KBTX-TV,Avery Schultz,0063100000ZdHIX,KBTX Repack ULXTE 72,OP-0007316,United States,Texas,USA,TX,USA,TX,USA,TX
001i000001PVrgr,KWEX-TV,Avery Schultz,0063100000a7Nro,Repack KWEX ULXT 20,OP-0007460,United States,Texas,USA,TX,USA,TX,USA,TX
001i000001RLSv8,KPXB-TV,Avery Schultz,0063100000a7OAC,KBXP Repack Planning ULXTE-60,OP-0007477,United States,Texas,USA,TX,USA,TX,USA,TX
001i000001PVqL5,KXOJ-FM,Avery Schultz,0063100000bN5oV,KXOJ-FM-FAX40FAX50HD,OP-0008404,United States,Oklahoma,USA,OK,,,USA,OK
001i000001PVqUb,KERA-FM,Avery Schultz,0063100000ZdOx6,FAX3HD,OP-0007343,United States,Texas,USA,TX,,,USA,TX
001i000001PVp8r,KETX-FM,Avery Schultz,0063100000eEK0d,FAX10FAX50,OP-0010656,United States,Texas,USA,TX,,,USA,TX
001i000001PVqX8,KFZX-FM,Avery Schultz,006i000000WA55w,HPX20,OP-0006020,United States,Texas,USA,TX,,,USA,TX
