Account ID,Account Name,Opportunity Owner,Opportunity ID,Opportunity Name,Opportunity Number,Opportunity Country (This is the shipping country),State/Province of Opportunity(This the shipping state),Shipping Country,Shipping State/Province,Billing Country,Billing State/Province,Sold To Country,Sold To State/Province,Unnamed: 14,Unnamed: 15,Red highlights needs to be filled in
001i000001PVqj4,VISION TELECOM CORPORATION,Alex Ng,0063100000dfSBp,"FAX5K Qty2, Vision",OP-0010107,"Korea, Republic of",,"Korea, Republic of",,"Korea, Republic of",,"Korea, Republic of",,,,
0013100001hCkaK,"JDA Johnston, dick & Associates LTD",Alex Ng,0063100000dNbPm,J3 Mux DVB-T Expansion,OP-0009875,New Zealand,,,,New Zealand,,,,,,
0013100001jqzcu,"Newsounds Broadcasting Network, Inc.",Alex Ng,0063100000dNjFp,NEWSOUNDS BROADCAST HP AM,OP-0009916,Philippines,,Philippines,,Philippines,,Philippines,,,,
001i000001PVrZN,ABS-CBN Corporation,Alex Ng,0063100000dfjsf,ABS-CBN Signal Improvement Project - Balance Orders,OP-0010178,Philippines,,Philippines,,Philippines,,Philippines,,,,
001i000001XN1bs,Raeair Broadcast Systems Pty Limited,Alex Ng,0063100000dNOB9,DAX6 for BE replacement,OP-0009841,Australia,,Australia,QLD,Australia,QLD,Australia,QLD,,,
001i000001PVrd2,AIBB International Inc.,Alex Ng,0063100000dNyBb,DXD400 Air cooled for MND,OP-0009943,"Korea, Republic of",,"Korea, Republic of",,"Korea, Republic of",,"Korea, Republic of",,,,
001i000001PVrF5,"COMPOSITE TECHNOLOGY, INC.",Alex Ng,0063100000dOLmt,PLDT RFQ 150W FM,OP-0009994,Philippines,,Philippines,,Philippines,,Philippines,,,,
001i000001PVrF5,"COMPOSITE TECHNOLOGY, INC.",Alex Ng,0063100000dfBVc,RPN/CNN Proof of Performance for HT60HS-I,OP-0010054,Philippines,,Philippines,,Philippines,,Philippines,,,,
001i000001PVofe,THE BRIDGE NETWORKS LTD. [USD],Alex Ng,0063100000dOLn3,Mediaworks Intraplex IX-DA-191B,OP-0009995,New Zealand,,New Zealand,,New Zealand,,New Zealand,,,,
001i000001PVrF5,"COMPOSITE TECHNOLOGY, INC.",Alex Ng,0065A00000ibUa5,"CLYDE JAM BROADCASTING DTT 2kW, 5kW & 10kW UAXTE",OP-0014680,Philippines,,Philippines,,Philippines,,Philippines,,,,
001i000001PVrVe,BAI Communications Pty Ltd,Alex Ng,0063100000dO3zs,Broadcast Australia 300W FM,OP-0009962,Australia,,Australia,NSW,Australia,NSW,Australia,NSW,,,
001i000001PVqj4,VISION TELECOM CORPORATION,Alex Ng,0063100000dNRDb,MBC Gwanak 2.5kW UAXT,OP-0009856,"Korea, Republic of",,"Korea, Republic of",,"Korea, Republic of",,"Korea, Republic of",,,,
001i000001PVrF5,"COMPOSITE TECHNOLOGY, INC.",Alex Ng,0063100000gR6dm,GMA 60kW VHF TV Diplexer,OP-0011537,Philippines,,Philippines,,Philippines,,Philippines,,,,
001i000001PVrF5,"COMPOSITE TECHNOLOGY, INC.",Alex Ng,0063100000dfEbl,RPN 9 AM Upgrade Tender,OP-0010063,Philippines,,Philippines,,Philippines,,Philippines,,,,
001i000001PVqj4,VISION TELECOM CORPORATION,Alex Ng,0063100000dOMdd,KBS UAXT-12,OP-0009997,"Korea, Republic of",,"Korea, Republic of",,"Korea, Republic of",,"Korea, Republic of",,,,
001i000001PVrZN,ABS-CBN Corporation,Alex Ng,0063100000dNj3t,Orbando 50kW AM,OP-0009912,Philippines,,Philippines,,Philippines,,Philippines,,,,
001i000001PVqj4,VISION TELECOM CORPORATION,Alex Ng,0063100000dOOzl,ULXT-12 Vision,OP-0010002,"Korea, Republic of",,"Korea, Republic of",,"Korea, Republic of",,"Korea, Republic of",,,,
0013100001jqzcu,"Newsounds Broadcasting Network, Inc.",Alex Ng,0063100000dfRqi,Newsounds Broadcasting 25kW AM,OP-0010106,Philippines,,Philippines,,Philippines,,Philippines,,,,
001i000001PVrQ3,CATUR MITRA ADHIKARA PT,Alex Ng,0065A00001XASVa,Da Ai TV 20kW ATV for Medan,OP-0019188,Indonesia,,Indonesia,,Indonesia,,Indonesia,,,,
001i000001PVrRK,RADIO REPUBLIK INDONESIA,Alex Ng,0063100000gRumh,Exgine Card for DRM+ Demo,OP-0011601,Indonesia,,Indonesia,,Indonesia,,Indonesia,,,,
001i000001PVqj4,VISION TELECOM CORPORATION,Alex Ng,0065A00000jaco0,KBS Digit CD upgrade to FAX50,OP-0015541,"Korea, Republic of",,"Korea, Republic of",,"Korea, Republic of",,"Korea, Republic of",,,,
001i000001PVrVm,WHITEWAYS SYSTEMS PTE LTD,Alex Ng,0063100000gSh5m,LX1000 for ABC in PNG,OP-0011674,Singapore,,Singapore,,Singapore,,Singapore,,,,
001i000001PVrQ3,CATUR MITRA ADHIKARA PT,Alex Ng,0065A000019mRc9,RRI - Telkom 1kW DRM+,OP-0017284,Indonesia,,Indonesia,,Indonesia,,Indonesia,,,,
001i000001PVrd2,AIBB International Inc.,Alex Ng,0065A00001HN4uy,Demo Loan Quote - UAXTE-10,OP-0017535,"Korea, Republic of",,"Korea, Republic of",,"Korea, Republic of",,"Korea, Republic of",,,,
001i000001PVrQ3,CATUR MITRA ADHIKARA PT,Alex Ng,0065A00001HMkt5,RRI - DRM Trial 2019,OP-0017418,Indonesia,,Indonesia,,Indonesia,,Indonesia,,,,
001i000001QMpcM,GMA NETWORK INC,Alex Ng,0065A00001HMw3U,GMA - FM Transmitters for Cebu,OP-0017489,Philippines,,Philippines,,Philippines,,Philippines,,,,
001i000001PVrd2,AIBB International Inc.,Alex Ng,0065A00001HN4vc,MBC Jeju - IP Link 100,OP-0017536,"Korea, Republic of",,"Korea, Republic of",,"Korea, Republic of",,"Korea, Republic of",,,,
001i000001PVrF5,"COMPOSITE TECHNOLOGY, INC.",Alex Ng,0065A00001HN2GD,PTV 2.5kW ISDB-T,OP-0017515,Philippines,,Philippines,,Philippines,,Philippines,,,,
001i000001PVrF5,"COMPOSITE TECHNOLOGY, INC.",Alex Ng,0063100000hFqf4,TELERED 5kW DTT RFP,OP-0011999,Philippines,,Philippines,,Philippines,,Philippines,,,,
001i000001PVrZN,ABS-CBN Corporation,Alex Ng,0063100000hEq68,DTT Phase 3 Rollout - 3 Sites,OP-0011878,Philippines,,Philippines,,Philippines,,Philippines,,,,
001i000001XN1bs,Raeair Broadcast Systems Pty Limited,Alex Ng,0065A00000jaJgd,RaeAir - CRA JVC DAB+ 3kW for Darwin,OP-0015337,Australia,,Australia,QLD,Australia,QLD,Australia,QLD,,,
001i000001PVqj4,VISION TELECOM CORPORATION,Alex Ng,0063100000hbXdb,FAX50 M/A as STL for Ethiopia,OP-0012558,"Korea, Republic of",,"Korea, Republic of",,"Korea, Republic of",,"Korea, Republic of",,,,
001i000001PVrF5,"COMPOSITE TECHNOLOGY, INC.",Alex Ng,0063100000gSvPu,Rigid line accessories for ABS-CBN,OP-0011692,Philippines,,Philippines,,Philippines,,Philippines,,,,
001i000001PVqtq,KOREAN BROADCASTING SYSTEM,Alex Ng,0063100000gT307,KBS UHD in local cities,OP-0011715,"Korea, Republic of",,"Korea, Republic of",,"Korea, Republic of",,"Korea, Republic of",,,,
001i000001PVrVm,WHITEWAYS SYSTEMS PTE LTD,Alex Ng,0063100000gTKum,PNG ULXT-4 4+1 System,OP-0011735,Singapore,,Singapore,,Singapore,,Singapore,,,,
001i000001PVrF5,"COMPOSITE TECHNOLOGY, INC.",Alex Ng,0065A00001XB3KQ,BEAM Filter Cooling kit,OP-0019349,Philippines,,Philippines,,Philippines,,Philippines,,,,
001i000001PVrVe,BAI Communications Pty Ltd,Alex Ng,0065A00000i0S6T,FAX 1K,OP-0013171,Australia,,Australia,NSW,Australia,NSW,Australia,NSW,,,
001i000001PVrd2,AIBB International Inc.,Alex Ng,0063100000hb5JO,MBC Gwangjoo ULXT-10 1+1,OP-0012506,"Korea, Republic of",,"Korea, Republic of",,"Korea, Republic of",,"Korea, Republic of",,,,
001i000001PVrF5,"COMPOSITE TECHNOLOGY, INC.",Alex Ng,0065A00001HMjpD,BEAM ULXTE 3kW to replace old Thomson,OP-0017410,Philippines,,Philippines,,Philippines,,Philippines,,,,
001i000001PVrd2,AIBB International Inc.,Alex Ng,0063100000hGkyq,MBC Pohang FAX 5K,OP-0012276,"Korea, Republic of",,"Korea, Republic of",,"Korea, Republic of",,"Korea, Republic of",,,,
001i000001PVqj4,VISION TELECOM CORPORATION,Alex Ng,0065A00000WteDn,Jinwoo M&C FAX1K,OP-0013748,"Korea, Republic of",,"Korea, Republic of",,"Korea, Republic of",,"Korea, Republic of",,,,
001i000001PVrF5,"COMPOSITE TECHNOLOGY, INC.",Alex Ng,0065A00000WtqeA,BEAM 5kW DTV,OP-0013828,Philippines,,Philippines,,Philippines,,Philippines,,,,
001i000001XN1bs,Raeair Broadcast Systems Pty Limited,Alex Ng,0065A00000WtNw6,Flexiva 10kW,OP-0013598,Australia,,Australia,QLD,Australia,QLD,Australia,QLD,,,
0013100001pVkrW,Gencom Technology Limited,Alex Ng,0065A00000WtLgr,IX-4176 for MediaWorks,OP-0013584,New Zealand,,New Zealand,Auckland,New Zealand,Auckland,,,,,
001i000001XN1bs,Raeair Broadcast Systems Pty Limited,Alex Ng,0065A00000WtNwB,"DAB 1kW, 2kW & 4kW RFQ",OP-0013599,Australia,,Australia,QLD,Australia,QLD,Australia,QLD,,,
001i000001PVqj4,VISION TELECOM CORPORATION,Alex Ng,0065A00000lhNWn,ARMY 9912 FM 10kW,OP-0015859,"Korea, Republic of",,"Korea, Republic of",,"Korea, Republic of",,"Korea, Republic of",,,,
0013100001pVkrW,Gencom Technology Limited,Alex Ng,0065A00000WtdzK,MediaWorks LX Enquiry,OP-0013747,New Zealand,,New Zealand,Auckland,New Zealand,Auckland,,,,,
001i000001QMpcM,GMA NETWORK INC,Alex Ng,0065A00000WtDFZ,GMA FAX10K for Cebu,OP-0013510,Philippines,,Philippines,,Philippines,,Philippines,,,,
001i000001QMpcM,GMA NETWORK INC,Alex Ng,0065A00000WtDFe,GMA FAX5K for Davao,OP-0013511,Philippines,,Philippines,,Philippines,,Philippines,,,,
001i000001PVqtq,KOREAN BROADCASTING SYSTEM,Alex Ng,0065A00000Wumcg,KBS ATSC 2.5kW 1+1 replacement for Diamond,OP-0014421,"Korea, Republic of",,"Korea, Republic of",,"Korea, Republic of",,"Korea, Republic of",,,,
001i000001PVqtq,KOREAN BROADCASTING SYSTEM,Alex Ng,0065A00000Wumcq,KBS UHD 2kW 1+1 for Gaeyang,OP-0014422,"Korea, Republic of",,"Korea, Republic of",,"Korea, Republic of",,"Korea, Republic of",,,,
001i000001PVqj4,VISION TELECOM CORPORATION,Alex Ng,0065A00000WtvD9,MBC Jeju UAXT 1kW ATSC,OP-0013886,"Korea, Republic of",,"Korea, Republic of",,"Korea, Republic of",,"Korea, Republic of",,,,
0013100001pVkrW,Gencom Technology Limited,Alex Ng,0065A00000WuCzk,JDA UAXT 2kW Dual Tran,OP-0013984,New Zealand,,New Zealand,Auckland,New Zealand,Auckland,,,,,
001i000001XN1bs,Raeair Broadcast Systems Pty Limited,Alex Ng,0065A00000iap6G,MPEG TS Encoding,OP-0014037,Australia,,Australia,QLD,Australia,QLD,Australia,QLD,,,
001i000001XN1bs,Raeair Broadcast Systems Pty Limited,Alex Ng,0065A00000WtWrd,Raeair DAX3 1251kHz,OP-0013671,Australia,,Australia,QLD,Australia,QLD,Australia,QLD,,,
001i000001PVqj4,VISION TELECOM CORPORATION,Alex Ng,0065A00000WtvD4,MBC Jeju Ranger Exciter Retrofit,OP-0013885,"Korea, Republic of",,"Korea, Republic of",,"Korea, Republic of",,"Korea, Republic of",,,,
001i000001PVrd2,AIBB International Inc.,Alex Ng,0065A00000Wu9P0,MBC Daegu DX10 Dual Tran,OP-0013972,"Korea, Republic of",,"Korea, Republic of",,"Korea, Republic of",,"Korea, Republic of",,,,
001i000001QMpcM,GMA NETWORK INC,Alex Ng,0065A00000WuBSe,GMA ULX5500 Relocation,OP-0013981,Philippines,,Philippines,,Philippines,,Philippines,,,,
001i000001XN1bs,Raeair Broadcast Systems Pty Limited,Alex Ng,0065A00000WtyeF,Macquarie Radio - AM 1kW or 3kW,OP-0013915,Australia,,Australia,QLD,Australia,QLD,Australia,QLD,,,
001i000001QMpcM,GMA NETWORK INC,Alex Ng,0065A00000Wu3Bj,FAX 40K upgrade to 60K,OP-0013935,Philippines,,Philippines,,Philippines,,Philippines,,,,
001i000001PVrQ3,CATUR MITRA ADHIKARA PT,Alex Ng,0065A00000WuDyE,RRI AM & FM On Site Training,OP-0014236,Indonesia,,Indonesia,,Indonesia,,Indonesia,,,,
001i000001PVrF5,"COMPOSITE TECHNOLOGY, INC.",Alex Ng,0065A00000WumcR,TV5 - FlexStar HDx-FM Exciter,OP-0014420,Philippines,,Philippines,,Philippines,,Philippines,,,,
001i000001PVqth,Sanko Progress Mabis Corporation,Alex Ng,0065A00001XBp3g,Tanaka Denki FAX50 M/A System Demo Unit,OP-0019493,Japan,,Japan,,Japan,,Japan,,,,
001i000001PVrQ3,CATUR MITRA ADHIKARA PT,Alex Ng,0065A00000jTtv2,RRI 2019 FM Order - 5 sites,OP-0014619,Indonesia,,Indonesia,,Indonesia,,Indonesia,,,,
001i000001PVrd2,AIBB International Inc.,Alex Ng,0065A00000ibITx,DVB-T2 2.5kW Overseas Project,OP-0014193,"Korea, Republic of",,"Korea, Republic of",,"Korea, Republic of",,"Korea, Republic of",,,,
001i000001PVrQ3,CATUR MITRA ADHIKARA PT,Alex Ng,0065A00000ibITs,RRI Additional 5kW FM for Tender,OP-0014192,Indonesia,,Indonesia,,Indonesia,,Indonesia,,,,
001i000001PVrF5,"COMPOSITE TECHNOLOGY, INC.",Alex Ng,0065A00001X9IKU,DAX5 1170Hz for islands,OP-0018743,Philippines,,Philippines,,Philippines,,Philippines,,,,
001i000001XN1bs,Raeair Broadcast Systems Pty Limited,Alex Ng,0065A00000Wumc2,Capital Radio ? Mandurah WA 2kW VAXTE,OP-0014419,Australia,,Australia,QLD,Australia,QLD,Australia,QLD,,,
001i000001PVqth,Sanko Progress Mabis Corporation,Alex Ng,0065A00000jab9f,DX25 Service call and basic on-site Training,OP-0015511,Japan,,Japan,,Japan,,Japan,,,,
001i000001PVqj4,VISION TELECOM CORPORATION,Alex Ng,0065A00000jaboO,Korea DMB 500W or 1kW DD,OP-0015530,"Korea, Republic of",,"Korea, Republic of",,"Korea, Republic of",,"Korea, Republic of",,,,
001i000001PVrVe,BAI Communications Pty Ltd,Alex Ng,0065A00000k11dv,BA RFP for 50 sites FM,OP-0014808,Australia,,Australia,NSW,Australia,NSW,Australia,NSW,,,
001i000001PVqth,Sanko Progress Mabis Corporation,Alex Ng,0065A00000jaXjc,Japan AM 5kW Replacement,OP-0015474,Japan,,Japan,,Japan,,Japan,,,,
001i000001PVrF5,"COMPOSITE TECHNOLOGY, INC.",Alex Ng,0065A00000lh6kS,UNTV IP Link 100 for Anti Polo,OP-0015732,Philippines,,Philippines,,Philippines,,Philippines,,,,
0013100001btFwF,tvri,Alex Ng,0065A00000lhCmZ,gatesair testquote V01,OP-0015798,Indonesia,,,,,,,,,,
001i000001PVrd2,AIBB International Inc.,Alex Ng,0065A00000lh7pU,MBC Gwangju FM 5kW 1+1,OP-0015753,"Korea, Republic of",,"Korea, Republic of",,"Korea, Republic of",,"Korea, Republic of",,,,
001i000001QMqHE,MUNWHA BROADCASTING CORPORATION,Alex Ng,0065A00000lh85B,MBC Jeju ATSC 1kW Replacement,OP-0015758,"Korea, Republic of",,"Korea, Republic of",,"Korea, Republic of",,"Korea, Republic of",,,,
001i000001PVrVe,BAI Communications Pty Ltd,Alex Ng,0065A00000m8l1N,FlexMA for existing Z5 & Z10,OP-0016119,Australia,,Australia,NSW,Australia,NSW,Australia,NSW,,,
001i000001PVrF5,"COMPOSITE TECHNOLOGY, INC.",Alex Ng,0065A00000m94Wl,B-Stock FAX50 for KBP Show,OP-0016203,Philippines,,Philippines,,Philippines,,Philippines,,,,
001i000001PVrF5,"COMPOSITE TECHNOLOGY, INC.",Alex Ng,0065A00000qhOMb,SM Mall FM 50W,OP-0016433,Philippines,,Philippines,,Philippines,,Philippines,,,,
001i000001PVrd2,AIBB International Inc.,Alex Ng,0065A00000m94SO,B Stock MSC for AIBB,OP-0016202,"Korea, Republic of",,"Korea, Republic of",,"Korea, Republic of",,"Korea, Republic of",,,,
0013100001hCkaK,"JDA Johnston, dick & Associates LTD",Alex Ng,0065A00000m9mcV,JDA - SDCL Samoa T2 RFP,OP-0016328,New Zealand,,,,New Zealand,,,,,,
001i000001PVrF5,"COMPOSITE TECHNOLOGY, INC.",Alex Ng,0065A00000qiIDN,CMN Antique FM 5kW,OP-0016758,Philippines,,Philippines,,Philippines,,Philippines,,,,
001i000001PVqtq,KOREAN BROADCASTING SYSTEM,Alex Ng,0065A00000qhzqF,KBS 4 sites of ATSC 1kW,OP-0016659,"Korea, Republic of",,"Korea, Republic of",,"Korea, Republic of",,"Korea, Republic of",,,,
001i000001PVqtq,KOREAN BROADCASTING SYSTEM,Alex Ng,0065A00000m9pRB,KBS UHD 2kW 1+1 for Yong moon,OP-0016329,"Korea, Republic of",,"Korea, Republic of",,"Korea, Republic of",,"Korea, Republic of",,,,
001i000001PVqtq,KOREAN BROADCASTING SYSTEM,Alex Ng,0065A00000qhzq5,KBS FM 3 or 5kW,OP-0016657,"Korea, Republic of",,"Korea, Republic of",,"Korea, Republic of",,"Korea, Republic of",,,,
001i000001PVrd2,AIBB International Inc.,Alex Ng,0065A00000qhV4H,"KBS FM (N/S) 5KW, 3KW & 1kW",OP-0016486,"Korea, Republic of",,"Korea, Republic of",,"Korea, Republic of",,"Korea, Republic of",,,,
001i000001PVrd2,AIBB International Inc.,Alex Ng,0065A00000qhV42,MBC Jeju - AM 10KW,OP-0016483,"Korea, Republic of",,"Korea, Republic of",,"Korea, Republic of",,"Korea, Republic of",,,,
001i000001PVrQ3,CATUR MITRA ADHIKARA PT,Alex Ng,0065A00000m8snR,Elshinta FM 2kW,OP-0016149,Indonesia,,Indonesia,,Indonesia,,Indonesia,,,,
001i000001QMpcM,GMA NETWORK INC,Alex Ng,0065A00000m9jVl,GMA ISDB-T 15+15kW,OP-0016295,Philippines,,Philippines,,Philippines,,Philippines,,,,
001i000001QMpcM,GMA NETWORK INC,Alex Ng,0065A00000m9mc1,Conversion of ULX5500IS to Analog,OP-0016325,Philippines,,Philippines,,Philippines,,Philippines,,,,
001i000001PVqj4,VISION TELECOM CORPORATION,Alex Ng,0065A00000m9Iud,MBC Gaeyang & Haeryoung UHD Redundant PS,OP-0016255,"Korea, Republic of",,"Korea, Republic of",,"Korea, Republic of",,"Korea, Republic of",,,,
001i000001PVqtq,KOREAN BROADCASTING SYSTEM,Alex Ng,0065A00000qhV4R,KBS (Local) DTV 2.5KW H/S,OP-0016488,"Korea, Republic of",,"Korea, Republic of",,"Korea, Republic of",,"Korea, Republic of",,,,
001i000001QMqHE,MUNWHA BROADCASTING CORPORATION,Alex Ng,0065A00000qhzqU,MBC UHD 1kW 1+1,OP-0016661,"Korea, Republic of",,"Korea, Republic of",,"Korea, Republic of",,"Korea, Republic of",,,,
001i000001PVrF5,"COMPOSITE TECHNOLOGY, INC.",Alex Ng,0065A00000mA1ew,Bantay Radio Cebu AM 10kW,OP-0016371,Philippines,,Philippines,,Philippines,,Philippines,,,,
0015A000024ibtv,Rymsa,Alex Ng,0065A00000qhXvK,Rymsa - Indonesia DX10 3 sets,OP-0016506,Spain,,Spain,,Spain,,,,,,
001i000001PVrZN,ABS-CBN Corporation,Alex Ng,0065A00000qiXxH,ABS-CBN DTT Expansion 3 Sites,OP-0016779,Philippines,,Philippines,,Philippines,,Philippines,,,,
0015A00001SC4XR,Maple Audio Technology Corporation,Alex Ng,0065A00000qihuH,Japan FM Band FAX50,OP-0016834,Japan,,Japan,,Japan,ON,Japan,,,,
001i000001XN1bs,Raeair Broadcast Systems Pty Limited,Alex Ng,0065A00000qiAEV,RaeAir - Dual drive upgrade kit,OP-0016718,Australia,,Australia,QLD,Australia,QLD,Australia,QLD,,,
001i000001PVrQ3,CATUR MITRA ADHIKARA PT,Alex Ng,0065A000019mCtu,MNC Group T2 Rollout,OP-0017170,Indonesia,,Indonesia,,Indonesia,,Indonesia,,,,
001i000001PVqj4,VISION TELECOM CORPORATION,Alex Ng,0065A00000qit3G,CBS - AM 10kW 1+1,OP-0016918,"Korea, Republic of",,"Korea, Republic of",,"Korea, Republic of",,"Korea, Republic of",,,,
001i000001PVrF5,"COMPOSITE TECHNOLOGY, INC.",Alex Ng,0065A000019mGn1,GMA - Cooling Hose,OP-0017194,Philippines,,Philippines,,Philippines,,Philippines,,,,
0015A00001SC4XR,Maple Audio Technology Corporation,Alex Ng,0065A00000qimdg,FAX150 Low Band Demo Unit,OP-0016883,Japan,,Japan,,Japan,ON,Japan,,,,
0015A00001SC4XR,Maple Audio Technology Corporation,Alex Ng,0065A00001XBARd,FAX50LB 89.4 MHz,OP-0019395,Japan,,Japan,,Japan,ON,Japan,,,,
001i000001PVrQ3,CATUR MITRA ADHIKARA PT,Alex Ng,0065A00001HQFNe,Da Ai TV 60kW ATV RFQ,OP-0017992,Indonesia,,Indonesia,,Indonesia,,Indonesia,,,,
001i000001PVrd2,AIBB International Inc.,Alex Ng,0065A00001HQDwO,KBS Low Power FM Tender 2019,OP-0017975,"Korea, Republic of",,"Korea, Republic of",,"Korea, Republic of",,"Korea, Republic of",,,,
0015A00001SC4XR,Maple Audio Technology Corporation,Alex Ng,0065A00001HQXoA,Low Band FM Repeater,OP-0018108,Japan,,Japan,,Japan,ON,Japan,,,,
001i000001PVrQ3,CATUR MITRA ADHIKARA PT,Alex Ng,0065A00001HQauD,TVRI 20kW ATV,OP-0018140,Indonesia,,Indonesia,,Indonesia,,Indonesia,,,,
001i000001PVrF5,"COMPOSITE TECHNOLOGY, INC.",Alex Ng,0065A00001HPKfD,GV Broadcast FM 50W,OP-0017768,Philippines,,Philippines,,Philippines,,Philippines,,,,
0015A00001SC4XR,Maple Audio Technology Corporation,Alex Ng,0065A00001HQc1e,"Hokkaido Stn - FM 7.5kW, 1kW, 300W and 150W",OP-0018148,Japan,,Japan,,Japan,ON,Japan,,,,
001i000001PVrF5,"COMPOSITE TECHNOLOGY, INC.",Alex Ng,0065A00001X9aQa,"BBS Marawi Project FM 20kW, 5kW & 1kW",OP-0018896,Philippines,,Philippines,,Philippines,,Philippines,,,,
001i000001PVrQ3,CATUR MITRA ADHIKARA PT,Alex Ng,0065A00001X9u54,Exgine Card for DRM+,OP-0018994,Indonesia,,Indonesia,,Indonesia,,Indonesia,,,,
001i000001PVrVe,BAI Communications Pty Ltd,Alex Ng,0063100000awUeR,BA Wades Hill Compact Class Power Upgrade,OP-0008041,Australia,,Australia,NSW,Australia,NSW,Australia,NSW,,,
001i000001PVrF5,"COMPOSITE TECHNOLOGY, INC.",Alex Ng,0063100000awUeb,GMA AM Radio Upgrade 2016,OP-0008042,Philippines,,Philippines,,Philippines,,Philippines,,,,
001i000001PVrF5,"COMPOSITE TECHNOLOGY, INC.",Alex Ng,0063100000awUg0,SOLAR RPN 9 HT60HSi Relocation,OP-0008043,Philippines,,Philippines,,Philippines,,Philippines,,,,
001i000001PVrd2,AIBB International Inc.,Alex Ng,0063100000ax14j,KBC VAX Spare Parts,OP-0008219,"Korea, Republic of",,"Korea, Republic of",,"Korea, Republic of",,"Korea, Republic of",,,,
001i000001PVrF5,"COMPOSITE TECHNOLOGY, INC.",Alex Ng,0063100000eEymi,PTNI RFQ - VHF & UHF ATV,OP-0010766,Philippines,,Philippines,,Philippines,,Philippines,,,,
0013100001fvlvp,Nera Telecommunications Ltd,Alex Ng,0063100000bOPAo,HD Link STL,OP-0008548,Singapore,,Singapore,,Singapore,,,,,,
001i000001PVqj4,VISION TELECOM CORPORATION,Alex Ng,0063100000aw7D7,MBC UHDTV 200W T2 upgradable to ATSC 3.0,OP-0007980,"Korea, Republic of",,"Korea, Republic of",,"Korea, Republic of",,"Korea, Republic of",,,,
001i000001PVrF5,"COMPOSITE TECHNOLOGY, INC.",Alex Ng,0063100000ax0sT,1kW UAXT or ULXT for ISDB-T,OP-0008215,Philippines,,Philippines,,Philippines,,Philippines,,,,
001i000001PVrF5,"COMPOSITE TECHNOLOGY, INC.",Alex Ng,0063100000ax0zs,Advance Media Broadcasting System 20kW FAX,OP-0008216,Philippines,,Philippines,,Philippines,,Philippines,,,,
001i000001PVrF5,"COMPOSITE TECHNOLOGY, INC.",Alex Ng,0063100000a89Hx,Delta Broadcasting System - 50kW AM,OP-0007598,Philippines,,Philippines,,Philippines,,Philippines,,,,
001i000001PVofe,THE BRIDGE NETWORKS LTD. [USD],Alex Ng,006i000000VRkqN,Mediaworks -Intraplex ADL links,OP-0000150,New Zealand,,New Zealand,,New Zealand,,New Zealand,,,,
001i000001PVqj4,VISION TELECOM CORPORATION,Alex Ng,006i000000VRkqa,KBS(Jeju) DX600 Move step by step,OP-0000163,"Korea, Republic of",,"Korea, Republic of",,"Korea, Republic of",,"Korea, Republic of",,,,
001i000001PVofe,THE BRIDGE NETWORKS LTD. [USD],Alex Ng,006i000000VRkr0,The Bridge - TX 500W LC,OP-0000189,New Zealand,,New Zealand,,New Zealand,,New Zealand,,,,
0013100001pVkrW,Gencom Technology Limited,Alex Ng,006i000000VRkr3,Radio Kiribati DX10,OP-0000192,New Zealand,,New Zealand,Auckland,New Zealand,Auckland,,,,,
001i000001PVofe,THE BRIDGE NETWORKS LTD. [USD],Alex Ng,006i000000VRkr4,Intraplex Synchrocast Training,OP-0000193,New Zealand,,New Zealand,,New Zealand,,New Zealand,,,,
001i000001PVofe,THE BRIDGE NETWORKS LTD. [USD],Alex Ng,006i000000VRkr5,1kW AM Tx,OP-0000194,New Zealand,,New Zealand,,New Zealand,,New Zealand,,,,
001i000001PVofe,THE BRIDGE NETWORKS LTD. [USD],Alex Ng,006i000000VRkr6,The Bridge Networks- DAX-1R,OP-0000195,New Zealand,,New Zealand,,New Zealand,,New Zealand,,,,
001i000001PVofe,THE BRIDGE NETWORKS LTD. [USD],Alex Ng,006i000000VRkr7,Bridge - IP links for kordia,OP-0000196,New Zealand,,New Zealand,,New Zealand,,New Zealand,,,,
001i000001PVofe,THE BRIDGE NETWORKS LTD. [USD],Alex Ng,006i000000VRkr8,Bridge - Orban audio proc,OP-0000197,New Zealand,,New Zealand,,New Zealand,,New Zealand,,,,
001i000001PVofe,THE BRIDGE NETWORKS LTD. [USD],Alex Ng,006i000000VRkrB,Ip Link 100 Pacific Islands,OP-0000200,New Zealand,,New Zealand,,New Zealand,,New Zealand,,,,
001i000001PVrF5,"COMPOSITE TECHNOLOGY, INC.",Alex Ng,0063100000awK7w,RUP Media Services Flexiva 5kW & 10kW with optional 2nd Exciter,OP-0008013,Philippines,,Philippines,,Philippines,,Philippines,,,,
001i000001PVqj4,VISION TELECOM CORPORATION,Alex Ng,0065A00000jZodM,KOICA Ethiopia - Spares,OP-0015061,"Korea, Republic of",,"Korea, Republic of",,"Korea, Republic of",,"Korea, Republic of",,,,
001i000001XN1bs,Raeair Broadcast Systems Pty Limited,Alex Ng,0065A00000jZtAZ,RaeAir LX1000,OP-0015099,Australia,,Australia,QLD,Australia,QLD,Australia,QLD,,,
0013100001pVkrW,Gencom Technology Limited,Alex Ng,0065A00000jZtAe,Intraplex Card IX-PSY-5048,OP-0015100,New Zealand,,New Zealand,Auckland,New Zealand,Auckland,,,,,
001i000001QMqHE,MUNWHA BROADCASTING CORPORATION,Alex Ng,0065A00000jaXiy,MBC Gwangju AM 10kW 2020,OP-0015467,"Korea, Republic of",,"Korea, Republic of",,"Korea, Republic of",,"Korea, Republic of",,,,
001i000001PVrF5,"COMPOSITE TECHNOLOGY, INC.",Alex Ng,0063100000cTvaN,BBS AM & FM Budgetary,OP-0009524,Philippines,,Philippines,,Philippines,,Philippines,,,,
001i000001PVrF5,"COMPOSITE TECHNOLOGY, INC.",Alex Ng,0065A00000jZoeZ,Nueva Ecija - DTV Ch47 500W & 1kW,OP-0015062,Philippines,,Philippines,,Philippines,,Philippines,,,,
001i000001PVrF5,"COMPOSITE TECHNOLOGY, INC.",Alex Ng,0065A00000jZvZR,Solar Entertainment 2 sets of 2.5kW ISDB-T,OP-0015120,Philippines,,Philippines,,Philippines,,Philippines,,,,
001i000001QNhGY,Omnicast Pty Ltd,Alex Ng,0063100000aAsxY,PNG VHF & UHF DTV,OP-0007867,Papau New Guinea,,,,Australia,,,,,,
001i000001XN1bs,Raeair Broadcast Systems Pty Limited,Alex Ng,0063100000bMLSq,Radio 2UE Sydney DAX6,OP-0008294,Australia,,Australia,QLD,Australia,QLD,Australia,QLD,,,
001i000001PVrd2,AIBB International Inc.,Alex Ng,0065A00000qhV4M,KBS FM (H/S) 3KW & 1KW,OP-0016487,"Korea, Republic of",,"Korea, Republic of",,"Korea, Republic of",,"Korea, Republic of",,,,
001i000001PVrQ3,CATUR MITRA ADHIKARA PT,Alex Ng,0065A00001X8ipZ,FAX1K for homologation,OP-0018542,Indonesia,,Indonesia,,Indonesia,,Indonesia,,,,
001i000001PVrF5,"COMPOSITE TECHNOLOGY, INC.",Alex Ng,0063100000bMSmY,SBN/Solar DTV on Antipolo,OP-0008308,Philippines,,Philippines,,Philippines,,Philippines,,,,
001i000001PVrQ3,CATUR MITRA ADHIKARA PT,Alex Ng,0065A00001XAb8b,ANTV 80kW ATV (Digital Ready) RFP,OP-0019271,Indonesia,,Indonesia,,Indonesia,,Indonesia,,,,
001i000001PVrQ3,CATUR MITRA ADHIKARA PT,Alex Ng,0065A00000ja02R,RRI - Bogor DX Upgrade to DRM,OP-0015176,Indonesia,,Indonesia,,Indonesia,,Indonesia,,,,
001i000001PVofe,THE BRIDGE NETWORKS LTD. [USD],Alex Ng,006i000000VRlAn,Bridge - JDA DTT TX 100kw,OP-0001373,New Zealand,,New Zealand,,New Zealand,,New Zealand,,,,
001i000001PVrka,TV5 NETWORK INC.,Alex Ng,0065A00000WuK97,TV5 - DTT Ch 18 Anti Polo,OP-0014289,Philippines,,Philippines,,Philippines,,Philippines,,,,
001i000001PVrF5,"COMPOSITE TECHNOLOGY, INC.",Alex Ng,0063100000bP2xN,CMN RFQ for Digital Ready 1kW & 5kW UHF,OP-0008640,Philippines,,Philippines,,Philippines,,Philippines,,,,
001i000001QNhGY,Omnicast Pty Ltd,Alex Ng,0063100000YK2MS,DAX3 Reference Pricing,OP-0006507,Australia,,,,Australia,,,,,,
001i000001QMpcM,GMA NETWORK INC,Alex Ng,006i000000W7vhg,GMA Digital Rollout,OP-0004973,Philippines,,Philippines,,Philippines,,Philippines,,,,
001i000001QMqHE,MUNWHA BROADCASTING CORPORATION,Alex Ng,006i000000W7viG,MBC Busan DX10 with old DX25 1+1,OP-0005009,"Korea, Republic of",,"Korea, Republic of",,"Korea, Republic of",,"Korea, Republic of",,,,
001i000001PVrF5,"COMPOSITE TECHNOLOGY, INC.",Alex Ng,0063100000bOOW3,"CMN RFQ for FM 1kW, 5kW HD & 1kW ATV Digital Ready",OP-0008544,Philippines,,Philippines,,Philippines,,Philippines,,,,
001i000001PVrZN,ABS-CBN Corporation,Alex Ng,0063100000bOOsW,Signal Improvement Project 2016 - Part 1,OP-0008546,Philippines,,Philippines,,Philippines,,Philippines,,,,
001i000001PVrF5,"COMPOSITE TECHNOLOGY, INC.",Alex Ng,0063100000bN3BQ,"INC Obando, Bulacan 50kW AM",OP-0008402,Philippines,,Philippines,,Philippines,,Philippines,,,,
001i000001PVrVm,WHITEWAYS SYSTEMS PTE LTD,Alex Ng,0063100000bOTRv,Low Power ATV for Fiji,OP-0008559,Singapore,,Singapore,,Singapore,,Singapore,,,,
001i000001QNhGY,Omnicast Pty Ltd,Alex Ng,0063100000bP2Bk,WA Mining Town 1kW & 2kW AM,OP-0008638,Australia,,,,Australia,,,,,,
001i000001PVrd2,AIBB International Inc.,Alex Ng,0063100000gRPCL,MBC Jeonju FM 5kW or 3kW M/A,OP-0011570,"Korea, Republic of",,"Korea, Republic of",,"Korea, Republic of",,"Korea, Republic of",,,,
001i000001PVrd2,AIBB International Inc.,Alex Ng,0065A00001WOGyW,SYGCOM FM 20kW,OP-0018319,"Korea, Republic of",,"Korea, Republic of",,"Korea, Republic of",,"Korea, Republic of",,,,
001i000001QNhGY,Omnicast Pty Ltd,Alex Ng,006i000000W8jk0,OP-0005923 Omnicast DX 10/15,OP-0005923,Australia,,,,Australia,,,,,,
001i000001PVrd2,AIBB International Inc.,Alex Ng,0063100000eEHPu,XTE Exciter Loan to MBC,OP-0010645,"Korea, Republic of",,"Korea, Republic of",,"Korea, Republic of",,"Korea, Republic of",,,,
001i000001PVrd2,AIBB International Inc.,Alex Ng,0063100000dpoqn,MBC Wonju 3.5kW 1+1,OP-0010362,"Korea, Republic of",,"Korea, Republic of",,"Korea, Republic of",,"Korea, Republic of",,,,
001i000001PVrF5,"COMPOSITE TECHNOLOGY, INC.",Alex Ng,0063100000Zdxx2,Nueva Ecija - AM 10kW and Radio Console,OP-0007445,Philippines,,Philippines,,Philippines,,Philippines,,,,
0015A00001SC4XR,Maple Audio Technology Corporation,Alex Ng,0065A00000WuGnS,Demo MPXp,OP-0014266,Japan,,Japan,,Japan,ON,Japan,,,,
0013100001pVkrW,Gencom Technology Limited,Alex Ng,0063100000f16sl,Mediaworks IP Link MPX Demo,OP-0010907,New Zealand,,New Zealand,Auckland,New Zealand,Auckland,,,,,
001i000001XN1bs,Raeair Broadcast Systems Pty Limited,Alex Ng,0063100000ffvyX,CRA RFI for DAB+ Expansion,OP-0011085,Australia,,Australia,QLD,Australia,QLD,Australia,QLD,,,
001i000001PVrd2,AIBB International Inc.,Alex Ng,0063100000awjE2,KBS XTE ATSC 3.0,OP-0008151,"Korea, Republic of",,"Korea, Republic of",,"Korea, Republic of",,"Korea, Republic of",,,,
001i000001XN1bs,Raeair Broadcast Systems Pty Limited,Alex Ng,0063100000f36u8,Intraplex over Fibre,OP-0011037,Australia,,Australia,QLD,Australia,QLD,Australia,QLD,,,
001i000001PVrF5,"COMPOSITE TECHNOLOGY, INC.",Alex Ng,0063100000eDo4b,Antipolo 2 x ATV to DTV 10+10,OP-0010577,Philippines,,Philippines,,Philippines,,Philippines,,,,
001i000001PVofe,THE BRIDGE NETWORKS LTD. [USD],Alex Ng,006i000000WA6O8,Cook Islands LP T2,OP-0006025,New Zealand,,New Zealand,,New Zealand,,New Zealand,,,,
001i000001PVrF5,"COMPOSITE TECHNOLOGY, INC.",Alex Ng,006i000000W97qr,UNTV 50kW AM,OP-0005958,Philippines,,Philippines,,Philippines,,Philippines,,,,
001i000001PVrVe,BAI Communications Pty Ltd,Alex Ng,0063100000deqSR,BA RFQ - 5kW UAXT & 5kW VAX-3D,OP-0010003,Australia,,Australia,NSW,Australia,NSW,Australia,NSW,,,
001i000001PVofe,THE BRIDGE NETWORKS LTD. [USD],Alex Ng,0063100000awwRt,Radio Tonga VTF - Flexiva 500W,OP-0008204,New Zealand,,New Zealand,,New Zealand,,New Zealand,,,,
001i000001PVrd2,AIBB International Inc.,Alex Ng,0063100000awAAm,SBS Seoul 1kW DMB Replacement,OP-0007991,"Korea, Republic of",,"Korea, Republic of",,"Korea, Republic of",,"Korea, Republic of",,,,
001i000001PVrF5,"COMPOSITE TECHNOLOGY, INC.",Alex Ng,0063100000aw0uK,PTV DTV 5kW & 1kW Tender,OP-0007958,Philippines,,Philippines,,Philippines,,Philippines,,,,
001i000001PVofe,THE BRIDGE NETWORKS LTD. [USD],Alex Ng,0063100000awwRe,NZME - Flexiva 50W &150W,OP-0008203,New Zealand,,New Zealand,,New Zealand,,New Zealand,,,,
001i000001PVqj4,VISION TELECOM CORPORATION,Alex Ng,0065A00000Wt0ik,KOICA - 3DX50 for Ethiopia,OP-0013405,"Korea, Republic of",,"Korea, Republic of",,"Korea, Republic of",,"Korea, Republic of",,,,
001i000001PVrVe,BAI Communications Pty Ltd,Alex Ng,0063100000bMsSe,2016 DMT Transmitter Replacement,OP-0008367,Australia,,Australia,NSW,Australia,NSW,Australia,NSW,,,
001i000001PVrd2,AIBB International Inc.,Alex Ng,0063100000haiGH,YTN DMB 1kW DD,OP-0012455,"Korea, Republic of",,"Korea, Republic of",,"Korea, Republic of",,"Korea, Republic of",,,,
001i000001PVrd2,AIBB International Inc.,Alex Ng,0063100000ZdK2A,MBC Cheong Ju - FAX 1K 1+1,OP-0007328,"Korea, Republic of",,"Korea, Republic of",,"Korea, Republic of",,"Korea, Republic of",,,,
001i000001QMpcS,Munhwa Broadcasting Corporation (MBC),Alex Ng,0063100000a87fA,MBC ATSC 3.0 ULXT 5KW 1+1,OP-0007597,"Korea, Republic of",,"Korea, Republic of",,,,"Korea, Republic of",,,,
001i000001PVrF5,"COMPOSITE TECHNOLOGY, INC.",Alex Ng,0063100000ax110,Subic Bay Radio Worldwide 10kW FM,OP-0008217,Philippines,,Philippines,,Philippines,,Philippines,,,,
001i000001PVrF5,"COMPOSITE TECHNOLOGY, INC.",Alex Ng,0065A00001HPXjs,UNTV 4-port Coaxial Switch,OP-0017831,Philippines,,Philippines,,Philippines,,Philippines,,,,
001i000001PVqj4,VISION TELECOM CORPORATION,Alex Ng,0063100000awOP9,KBS FAX10 to replace ZCD,OP-0008026,"Korea, Republic of",,"Korea, Republic of",,"Korea, Republic of",,"Korea, Republic of",,,,
001i000001PVrd2,AIBB International Inc.,Alex Ng,006i000000VRlUu,Korea National Defence 1kW ATV & DTV,OP-0002573,"Korea, Republic of",,"Korea, Republic of",,"Korea, Republic of",,"Korea, Republic of",,,,
001i000001PVqj4,VISION TELECOM CORPORATION,Alex Ng,006i000000VRlTj,"Arirang 150W, 500W & 1kW FAX 1+1",OP-0002500,"Korea, Republic of",,"Korea, Republic of",,"Korea, Republic of",,"Korea, Republic of",,,,
001i000001PVqj4,VISION TELECOM CORPORATION,Alex Ng,006i000000VRlTp,BBS Bulsan FAX1K 1+1 system in 1 rack,OP-0002506,"Korea, Republic of",,"Korea, Republic of",,"Korea, Republic of",,"Korea, Republic of",,,,
001i000001PVqj4,VISION TELECOM CORPORATION,Alex Ng,006i000000VRlTq,3DX50 for Ethiopia (KOICA),OP-0002507,"Korea, Republic of",,"Korea, Republic of",,"Korea, Republic of",,"Korea, Republic of",,,,
001i000001PVrF5,"COMPOSITE TECHNOLOGY, INC.",Alex Ng,0063100000hbBT2,Nueva Ecija 1.5kW ATV Digital Ready,OP-0012525,Philippines,,Philippines,,Philippines,,Philippines,,,,
001i000001PVofe,THE BRIDGE NETWORKS LTD. [USD],Alex Ng,0063100000a9Moz,Tonga Broadcasting Commission - DX10,OP-0007710,New Zealand,,New Zealand,,New Zealand,,New Zealand,,,,
001i000001PVrka,TV5 NETWORK INC.,Alex Ng,0065A00000jZvZl,Antipolo DTV Ch 41 to Ch 18,OP-0015121,Philippines,,Philippines,,Philippines,,Philippines,,,,
001i000001PVofe,THE BRIDGE NETWORKS LTD. [USD],Alex Ng,0063100000bMgZa,WTV DAX5,OP-0008354,New Zealand,,New Zealand,,New Zealand,,New Zealand,,,,
001i000001PVofe,THE BRIDGE NETWORKS LTD. [USD],Alex Ng,0063100000bOlpj,JDA - UAXT Redundant Power Supply,OP-0008601,New Zealand,,New Zealand,,New Zealand,,New Zealand,,,,
001i000001PVrF5,"COMPOSITE TECHNOLOGY, INC.",Alex Ng,0063100000ay46u,Delta Broadcasting 1kW ATV Digital Ready,OP-0008240,Philippines,,Philippines,,Philippines,,Philippines,,,,
001i000001QNhGY,Omnicast Pty Ltd,Alex Ng,006i000000W83tB,Omnicast - FLX 10kW & 20kW,OP-0005782,Australia,,,,Australia,,,,,,
001i000001QNhGY,Omnicast Pty Ltd,Alex Ng,0063100000bN7tF,Gambier Electronics FAX3.5K with Orban Audio Processor,OP-0008418,Australia,,,,Australia,,,,,,
001i000001PVofe,THE BRIDGE NETWORKS LTD. [USD],Alex Ng,0063100000eFIUI,Rhema DAX 5kW,OP-0010800,New Zealand,,New Zealand,,New Zealand,,New Zealand,,,,
001i000001PVrF5,"COMPOSITE TECHNOLOGY, INC.",Alex Ng,0063100000eFIiQ,Zoe Broadcasting DX10,OP-0010801,Philippines,,Philippines,,Philippines,,Philippines,,,,
001i000001PVofe,THE BRIDGE NETWORKS LTD. [USD],Alex Ng,0063100000dpRIl,MediaWorks NetXpress 6 Ch EAPT-X,OP-0010265,New Zealand,,New Zealand,,New Zealand,,New Zealand,,,,
001i000001PVrF5,"COMPOSITE TECHNOLOGY, INC.",Alex Ng,006i000000VRlWt,TV5 - 2 x ISDB-T 10kW to 10+10,OP-0002689,Philippines,,Philippines,,Philippines,,Philippines,,,,
001i000001PVqj4,VISION TELECOM CORPORATION,Alex Ng,006i000000VRlXS,ARMY(3182) ATSC ULXT-8 and UAXT-2,OP-0002724,"Korea, Republic of",,"Korea, Republic of",,"Korea, Republic of",,"Korea, Republic of",,,,
001i000001PVrF5,"COMPOSITE TECHNOLOGY, INC.",Alex Ng,006i000000VRla3,MediaQuest - 5kW ISDB-T,OP-0002876,Philippines,,Philippines,,Philippines,,Philippines,,,,
001i000001PVqj4,VISION TELECOM CORPORATION,Alex Ng,006i000000VRlbP,BBS Busan 1+1 system with FAX5K and old PT5,OP-0002960,"Korea, Republic of",,"Korea, Republic of",,"Korea, Republic of",,"Korea, Republic of",,,,
001i000001PVqj4,VISION TELECOM CORPORATION,Alex Ng,006i000000VRlbQ,Ethiopia 50kW AM,OP-0002961,"Korea, Republic of",,"Korea, Republic of",,"Korea, Republic of",,"Korea, Republic of",,,,
001i000001PVrZN,ABS-CBN Corporation,Alex Ng,0063100000dp57x,ABS-CBN 60kW FM Re-tender with HD Radio,OP-0010206,Philippines,,Philippines,,Philippines,,Philippines,,,,
001i000001PVqj4,VISION TELECOM CORPORATION,Alex Ng,006i000000VRlcU,3DX50 for Ethiopia,OP-0003024,"Korea, Republic of",,"Korea, Republic of",,"Korea, Republic of",,"Korea, Republic of",,,,
0013100001jqzcu,"Newsounds Broadcasting Network, Inc.",Alex Ng,006i000000VRlcb,NEWSOUNDS BROADCASITNG INC - FM & AM TXs,OP-0003031,Philippines,,Philippines,,Philippines,,Philippines,,,,
001i000001PVrF5,"COMPOSITE TECHNOLOGY, INC.",Alex Ng,006i000000VRlcf,"Y101FM - 2K, 3K & 4K FM",OP-0003035,Philippines,,Philippines,,Philippines,,Philippines,,,,
001i000001PVrLh,BROADCAST ONE (USD) LIQUIDATION,Alex Ng,006i000000VRlOA,BA VAX50,OP-0002174,Australia,,Australia,NSW,Australia,NSW,Australia,NSW,,,
001i000001PVrLh,BROADCAST ONE (USD) LIQUIDATION,Alex Ng,006i000000VRlOB,Broadcast ONE - MSC control #2,OP-0002175,Australia,,Australia,NSW,Australia,NSW,Australia,NSW,,,
001i000001PVrLh,BROADCAST ONE (USD) LIQUIDATION,Alex Ng,006i000000VRlOC,Broadcast ONE -MSC control # 4,OP-0002176,Australia,,Australia,NSW,Australia,NSW,Australia,NSW,,,
001i000001PVrLh,BROADCAST ONE (USD) LIQUIDATION,Alex Ng,006i000000VRlOE,Broadcast ONE - MSC control #1,OP-0002178,Australia,,Australia,NSW,Australia,NSW,Australia,NSW,,,
001i000001PVrLh,BROADCAST ONE (USD) LIQUIDATION,Alex Ng,006i000000VRlOF,IP Link 100,OP-0002179,Australia,,Australia,NSW,Australia,NSW,Australia,NSW,,,
001i000001PVrLh,BROADCAST ONE (USD) LIQUIDATION,Alex Ng,006i000000VRlOG,B1 - UAX 5W to 50W key,OP-0002180,Australia,,Australia,NSW,Australia,NSW,Australia,NSW,,,
001i000001PVrLh,BROADCAST ONE (USD) LIQUIDATION,Alex Ng,006i000000VRlOJ,BA Standalone MSC,OP-0002183,Australia,,Australia,NSW,Australia,NSW,Australia,NSW,,,
001i000001PVrLh,BROADCAST ONE (USD) LIQUIDATION,Alex Ng,006i000000VRlOK,B1 - BA Prime Mt Cen Cruich,OP-0002184,Australia,,Australia,NSW,Australia,NSW,Australia,NSW,,,
001i000001PVrLh,BROADCAST ONE (USD) LIQUIDATION,Alex Ng,006i000000VRlOL,B1 - FAX5KFAX150,OP-0002185,Australia,,Australia,NSW,Australia,NSW,Australia,NSW,,,
001i000001PVrLh,BROADCAST ONE (USD) LIQUIDATION,Alex Ng,006i000000VRlOM,Broadcast One - VAX50 X4,OP-0002186,Australia,,Australia,NSW,Australia,NSW,Australia,NSW,,,
001i000001QNhGY,Omnicast Pty Ltd,Alex Ng,006i000000XH0HE,OP-0006395 FM reference pricing,OP-0006395,Australia,,,,Australia,,,,,,
001i000001PVrF5,"COMPOSITE TECHNOLOGY, INC.",Alex Ng,0063100000ezgo5,Nueva Ecija DAX 6,OP-0010815,Philippines,,Philippines,,Philippines,,Philippines,,,,
001i000001PVrF5,"COMPOSITE TECHNOLOGY, INC.",Alex Ng,0065A00001WOJHz,BEAM UAX-OP 1kW to 3kW to replace aging Thomson,OP-0018341,Philippines,,Philippines,,Philippines,,Philippines,,,,
001i000001PVqto,RADIO PHILIPPINES NETWORK,Alex Ng,006i000000VRl1t,1-B4IXQX UAXT-2DV,OP-0000829,Philippines,,Philippines,,Philippines,,Philippines,,,,
001i000001QMqHE,MUNWHA BROADCASTING CORPORATION,Alex Ng,0065A00000WirFm,MBC Gwangjoo UHD 5kW 1+1,OP-0012957,"Korea, Republic of",,"Korea, Republic of",,"Korea, Republic of",,"Korea, Republic of",,,,
001i000001PVrF5,"COMPOSITE TECHNOLOGY, INC.",Alex Ng,0065A00000WuK9g,BEAM 7.5kW DTT Anti Polo,OP-0014291,Philippines,,Philippines,,Philippines,,Philippines,,,,
001i000001PVrF5,"COMPOSITE TECHNOLOGY, INC.",Alex Ng,0063100000bMFUf,CAPP Group Palawan - FM Transmitter,OP-0008284,Philippines,,Philippines,,Philippines,,Philippines,,,,
001i000001PVrVe,BAI Communications Pty Ltd,Alex Ng,006i000000VRl8n,UAX-50 Compact Class,OP-0001251,Australia,,Australia,NSW,Australia,NSW,Australia,NSW,,,
001i000001PVrLh,BROADCAST ONE (USD) LIQUIDATION,Alex Ng,006i000000VRl7Y,BCO- TXA,OP-0001174,Australia,,Australia,NSW,Australia,NSW,Australia,NSW,,,
001i000001PVrLh,BROADCAST ONE (USD) LIQUIDATION,Alex Ng,006i000000VRl7b,Broadcast ONE - MSC control # 3,OP-0001177,Australia,,Australia,NSW,Australia,NSW,Australia,NSW,,,
001i000001PVrLh,BROADCAST ONE (USD) LIQUIDATION,Alex Ng,006i000000VRl7c,BCO-Exciter Power Supply Harris UAX/VAX50 series,OP-0001178,Australia,,Australia,NSW,Australia,NSW,Australia,NSW,,,
001i000001PVrLh,BROADCAST ONE (USD) LIQUIDATION,Alex Ng,006i000000VRl7d,RFP Broadcast Australia 2014,OP-0001179,Australia,,Australia,NSW,Australia,NSW,Australia,NSW,,,
001i000001PVrLh,BROADCAST ONE (USD) LIQUIDATION,Alex Ng,006i000000VRl7e,10KW AM Transmitter and sparing,OP-0001180,Australia,,Australia,NSW,Australia,NSW,Australia,NSW,,,
001i000001PVrLh,BROADCAST ONE (USD) LIQUIDATION,Alex Ng,006i000000VRl7f,B1 -10kW AM and FM transmitter,OP-0001181,Australia,,Australia,NSW,Australia,NSW,Australia,NSW,,,
001i000001PVrLh,BROADCAST ONE (USD) LIQUIDATION,Alex Ng,006i000000VRl7h,B1 - IP link 200,OP-0001183,Australia,,Australia,NSW,Australia,NSW,Australia,NSW,,,
001i000001PVrLh,BROADCAST ONE (USD) LIQUIDATION,Alex Ng,006i000000VRl7i,B1 - DAX5 TX quote,OP-0001184,Australia,,Australia,NSW,Australia,NSW,Australia,NSW,,,
001i000001PVrLh,BROADCAST ONE (USD) LIQUIDATION,Alex Ng,006i000000VRl7l,B1 - VAX100DV,OP-0001187,Australia,,Australia,NSW,Australia,NSW,Australia,NSW,,,
001i000001PVrLh,BROADCAST ONE (USD) LIQUIDATION,Alex Ng,006i000000VRl7n,B1 - TX Myanmar,OP-0001189,Australia,,Australia,NSW,Australia,NSW,Australia,NSW,,,
001i000001PVrLh,BROADCAST ONE (USD) LIQUIDATION,Alex Ng,006i000000VRl7o,Broadcast ONE - AM transmitter,OP-0001190,Australia,,Australia,NSW,Australia,NSW,Australia,NSW,,,
001i000001PVqj4,VISION TELECOM CORPORATION,Alex Ng,0063100000aBSLi,UBC DMB 150W Qty.2,OP-0007909,"Korea, Republic of",,"Korea, Republic of",,"Korea, Republic of",,"Korea, Republic of",,,,
001i000001PVrd2,AIBB International Inc.,Alex Ng,006i000000YIFYG,WBS FAX3.5K 1+1 Qty 2 AIBB,OP-0006416,"Korea, Republic of",,"Korea, Republic of",,"Korea, Republic of",,"Korea, Republic of",,,,
001i000001PVrVe,BAI Communications Pty Ltd,Alex Ng,0063100000bMby5,BA Merriwa UAX 50W,OP-0008340,Australia,,Australia,NSW,Australia,NSW,Australia,NSW,,,
001i000001QMpcM,GMA NETWORK INC,Alex Ng,0065A00001X944M,GMA 10kW DTV for Bacolod,OP-0018652,Philippines,,Philippines,,Philippines,,Philippines,,,,
001i000001PVrF5,"COMPOSITE TECHNOLOGY, INC.",Alex Ng,0063100000bxKhT,1kW FM & 1kW DTV,OP-0008702,Philippines,,Philippines,,Philippines,,Philippines,,,,
001i000001QNhGY,Omnicast Pty Ltd,Alex Ng,006i000000W8va4,Intraplex and Studio for 2GB,OP-0005946,Australia,,,,Australia,,,,,,
001i000001PVrZN,ABS-CBN Corporation,Alex Ng,0063100000eDQHc,HD Radio Upgrade for FAX10K,OP-0010489,Philippines,,Philippines,,Philippines,,Philippines,,,,
001i000001PVrVe,BAI Communications Pty Ltd,Alex Ng,0063100000bxAHb,BA Burra & Quorn UAX 50W,OP-0008681,Australia,,Australia,NSW,Australia,NSW,Australia,NSW,,,
001i000001PVrd2,AIBB International Inc.,Alex Ng,0063100000eCuxJ,KBC 10kW FM 1+1,OP-0010419,"Korea, Republic of",,"Korea, Republic of",,"Korea, Republic of",,"Korea, Republic of",,,,
001i000001PVrd2,AIBB International Inc.,Alex Ng,0063100000fgvk1,SBS 3DX 25/50 in M/A,OP-0011171,"Korea, Republic of",,"Korea, Republic of",,"Korea, Republic of",,"Korea, Republic of",,,,
001i000001PVrZN,ABS-CBN Corporation,Alex Ng,0063100000bxAI0,Signal Improvement Project 2016 - Part 2,OP-0008682,Philippines,,Philippines,,Philippines,,Philippines,,,,
001i000001PVqtq,KOREAN BROADCASTING SYSTEM,Alex Ng,0063100000bxA0a,ATSC 3.0 5kW ULXT in 3+1,OP-0008679,"Korea, Republic of",,"Korea, Republic of",,"Korea, Republic of",,"Korea, Republic of",,,,
001i000001QMpcM,GMA NETWORK INC,Alex Ng,0063100000eCxWJ,Low power AM for emergency,OP-0010433,Philippines,,Philippines,,Philippines,,Philippines,,,,
001i000001PVqtq,KOREAN BROADCASTING SYSTEM,Alex Ng,0065A00000jaA7O,KBS 2018 FM Transmitter Tender,OP-0015261,"Korea, Republic of",,"Korea, Republic of",,"Korea, Republic of",,"Korea, Republic of",,,,
001i000001PVrF5,"COMPOSITE TECHNOLOGY, INC.",Alex Ng,0063100000dpral,IP Link 100 - Try before buy Demo for UNTV,OP-0010370,Philippines,,Philippines,,Philippines,,Philippines,,,,
001i000001PVrd2,AIBB International Inc.,Alex Ng,0063100000eEqmX,SYGCOM FM 40kW,OP-0010742,"Korea, Republic of",,"Korea, Republic of",,"Korea, Republic of",,"Korea, Republic of",,,,
001i000001PVrd2,AIBB International Inc.,Alex Ng,0063100000eDvtu,SYGCOM 30kW T2 in 1+1 with 12-port PP,OP-0010599,"Korea, Republic of",,"Korea, Republic of",,"Korea, Republic of",,"Korea, Republic of",,,,
001i000001PVrd2,AIBB International Inc.,Alex Ng,0063100000eDvjQ,1kW UHD Repeater Stations,OP-0010597,"Korea, Republic of",,"Korea, Republic of",,"Korea, Republic of",,"Korea, Republic of",,,,
001i000001PVrQ3,CATUR MITRA ADHIKARA PT,Alex Ng,0065A00000qivkn,Demo units - IP Link 100,OP-0016941,Indonesia,,Indonesia,,Indonesia,,Indonesia,,,,
001i000001XN1bs,Raeair Broadcast Systems Pty Limited,Alex Ng,0063100000f0fm2,EDI option card for VAX,OP-0010885,Australia,,Australia,QLD,Australia,QLD,Australia,QLD,,,
001i000001PVrF5,"COMPOSITE TECHNOLOGY, INC.",Alex Ng,0063100000f0t1m,TV5 HD Radio Ready 30kW FM,OP-0010895,Philippines,,Philippines,,Philippines,,Philippines,,,,
001i000001PVrF5,"COMPOSITE TECHNOLOGY, INC.",Alex Ng,0063100000f0U3Z,Astro 2 CH FM in Manila,OP-0010873,Philippines,,Philippines,,Philippines,,Philippines,,,,
001i000001PVrZN,ABS-CBN Corporation,Alex Ng,0063100000f0Nc8,ABS-CBN FM Bandpass Filters,OP-0010863,Philippines,,Philippines,,Philippines,,Philippines,,,,
001i000001PVrF5,"COMPOSITE TECHNOLOGY, INC.",Alex Ng,006i000000XEuu4,Aksyon TV 1kW ISDB-T,OP-0006302,Philippines,,Philippines,,Philippines,,Philippines,,,,
001i000001PVofe,THE BRIDGE NETWORKS LTD. [USD],Alex Ng,0063100000bxKhO,MediaWorks 1kW AM,OP-0008701,New Zealand,,New Zealand,,New Zealand,,New Zealand,,,,
001i000001PVrF5,"COMPOSITE TECHNOLOGY, INC.",Alex Ng,006i000000XEZF5,TV5 Analog to Digital Upgrade,OP-0006275,Philippines,,Philippines,,Philippines,,Philippines,,,,
001i000001PVrd2,AIBB International Inc.,Alex Ng,006i000000WBdGA,PBC-Daegu FAX LP,OP-0006139,"Korea, Republic of",,"Korea, Republic of",,"Korea, Republic of",,"Korea, Republic of",,,,
0013100001pVkrW,Gencom Technology Limited,Alex Ng,006i000000WBmVh,Mediaworks - AM 3kw x 3,OP-0006152,New Zealand,,New Zealand,Auckland,New Zealand,Auckland,,,,,
001i000001PVrF5,"COMPOSITE TECHNOLOGY, INC.",Alex Ng,0063100000cSVNs,UNTV 1kW FM and 1kW ATV,OP-0009183,Philippines,,Philippines,,Philippines,,Philippines,,,,
001i000001XN1bs,Raeair Broadcast Systems Pty Limited,Alex Ng,0065A00000jaCKj,Intraplex Card IX-NX-OPT-EC,OP-0015269,Australia,,Australia,QLD,Australia,QLD,Australia,QLD,,,
001i000001PVqj4,VISION TELECOM CORPORATION,Alex Ng,006i000000YJ8JR,KBS Sorae 200kW AM,OP-0006452,"Korea, Republic of",,"Korea, Republic of",,"Korea, Republic of",,"Korea, Republic of",,,,
001i000001PVrF5,"COMPOSITE TECHNOLOGY, INC.",Alex Ng,0063100000f1ka4,TV5 Existing 3 x 10kW to 30kW FM,OP-0010942,Philippines,,Philippines,,Philippines,,Philippines,,,,
001i000001PVrF5,"COMPOSITE TECHNOLOGY, INC.",Alex Ng,0063100000ZNw99,ABS-CBN 40kW FM for Metro Manila,OP-0006959,Philippines,,Philippines,,Philippines,,Philippines,,,,
001i000001PVrF5,"COMPOSITE TECHNOLOGY, INC.",Alex Ng,0063100000ZNw8z,ABS-CBN 50kW AM for Metro Manila,OP-0006958,Philippines,,Philippines,,Philippines,,Philippines,,,,
001i000001PVrF5,"COMPOSITE TECHNOLOGY, INC.",Alex Ng,0065A00000qimYb,Bombo Radyo AM 10kW,OP-0016882,Philippines,,Philippines,,Philippines,,Philippines,,,,
001i000001PVqj4,VISION TELECOM CORPORATION,Alex Ng,006i000000YJVtK,ARMY(3182) FAX40KW,OP-0006471,"Korea, Republic of",,"Korea, Republic of",,"Korea, Republic of",,"Korea, Republic of",,,,
001i000001QMqHE,MUNWHA BROADCASTING CORPORATION,Alex Ng,0063100000eDh3M,ULXT4 1+1 for Gwangju MBC,OP-0010536,"Korea, Republic of",,"Korea, Republic of",,"Korea, Republic of",,"Korea, Republic of",,,,
001i000001PVrF5,"COMPOSITE TECHNOLOGY, INC.",Alex Ng,0063100000ZFYb6,TV5 10kW ATV upgrade to DTV,OP-0006938,Philippines,,Philippines,,Philippines,,Philippines,,,,
001i000001QNhGY,Omnicast Pty Ltd,Alex Ng,0063100000YK2Lo,DAX1 Reference Pricing,OP-0006506,Australia,,,,Australia,,,,,,
001i000001QMqHE,MUNWHA BROADCASTING CORPORATION,Alex Ng,0063100000ZYt8X,MBC Jeonju FAX3K and FAX5K 1+1 system,OP-0007132,"Korea, Republic of",,"Korea, Republic of",,"Korea, Republic of",,"Korea, Republic of",,,,
001i000001PVrF5,"COMPOSITE TECHNOLOGY, INC.",Alex Ng,0063100000ZFG6m,Demo UAXT for CNN Philippine,OP-0006906,Philippines,,Philippines,,Philippines,,Philippines,,,,
001i000001PVofe,THE BRIDGE NETWORKS LTD. [USD],Alex Ng,0063100000cT7wk,Mediaworks IP Link for 4 Stereo Channels,OP-0009290,New Zealand,,New Zealand,,New Zealand,,New Zealand,,,,
001i000001PVrZN,ABS-CBN Corporation,Alex Ng,0063100000cTtB7,15kW AM Puerto Princesa,OP-0009480,Philippines,,Philippines,,Philippines,,Philippines,,,,
001i000001QMpcM,GMA NETWORK INC,Alex Ng,0063100000f2RbO,GMA Metro Manila SFN,OP-0010981,Philippines,,Philippines,,Philippines,,Philippines,,,,
001i000001PVqhr,GLOBECOMM SYSTEMS INC,Alex Ng,0063100000f2R2H,Globecomm - PNG DTV Project,OP-0010978,USA,,USA,NY,USA,NY,USA,NY,,,
001i000001PVqj4,VISION TELECOM CORPORATION,Alex Ng,0065A00001HN0dW,KBS Gwanak - FM 50W,OP-0017504,"Korea, Republic of",,"Korea, Republic of",,"Korea, Republic of",,"Korea, Republic of",,,,
001i000001PVrF5,"COMPOSITE TECHNOLOGY, INC.",Alex Ng,0063100000Zd2IV,Radio Corp - 5kW & 10kW AM,OP-0007276,Philippines,,Philippines,,Philippines,,Philippines,,,,
0013100001pVkrW,Gencom Technology Limited,Alex Ng,0063100000eEymO,SDCL Samoa T2 RFP,OP-0010765,New Zealand,,New Zealand,Auckland,New Zealand,Auckland,,,,,
0013100001pVkrW,Gencom Technology Limited,Alex Ng,0065A00000ibFGw,NZME LX300 Repeat Order,OP-0014169,New Zealand,,New Zealand,Auckland,New Zealand,Auckland,,,,,
001i000001PVqj4,VISION TELECOM CORPORATION,Alex Ng,0063100000avt9e,"Damji Trading T2 5kW, 20kW & 30kW 1+1",OP-0007937,"Korea, Republic of",,"Korea, Republic of",,"Korea, Republic of",,"Korea, Republic of",,,,
0013100001jqzcu,"Newsounds Broadcasting Network, Inc.",Alex Ng,0063100000dMpVD,"NEWSOUNDS BROADCASITNG FM 5, 10 & 20kW AM 3kW",OP-0009679,Philippines,,Philippines,,Philippines,,Philippines,,,,
001i000001PVrd2,AIBB International Inc.,Alex Ng,0063100000cSYW0,OP-0009193 SBS Seoul ATSC 3.0,OP-0009193,"Korea, Republic of",,"Korea, Republic of",,"Korea, Republic of",,"Korea, Republic of",,,,
001i000001PVrQ3,CATUR MITRA ADHIKARA PT,Alex Ng,0063100000f2RRG,MNC - 7 units of 3kW ATV,OP-0010980,Indonesia,,Indonesia,,Indonesia,,Indonesia,,,,
001i000001QMpcM,GMA NETWORK INC,Alex Ng,0063100000fhILa,GMA Upgrade ULX 5kW to 10kW,OP-0011201,Philippines,,Philippines,,Philippines,,Philippines,,,,
001i000001QMpcc,AIBB International Inc.,Alex Ng,0063100000dOJu4,"MBC Mokpo, FM 2kw 1+1",OP-0009990,"Korea, Republic of",,"Korea, Republic of",,,,"Korea, Republic of",,,,
001i000001PVrF5,"COMPOSITE TECHNOLOGY, INC.",Alex Ng,0063100000dNxjW,Cathedral of Praise 10kW & 25kW AM,OP-0009939,Philippines,,Philippines,,Philippines,,Philippines,,,,
001i000001PVrF5,"COMPOSITE TECHNOLOGY, INC.",Alex Ng,0063100000aBNuy,RPN 5kW AM,OP-0007899,Philippines,,Philippines,,Philippines,,Philippines,,,,
001i000001PVrF5,"COMPOSITE TECHNOLOGY, INC.",Alex Ng,0063100000ZZRwi,Nine Media 5kW DTV,OP-0007241,Philippines,,Philippines,,Philippines,,Philippines,,,,
001i000001PVrF5,"COMPOSITE TECHNOLOGY, INC.",Alex Ng,0063100000dN1vI,Nueva Ecija Netwave-16 & Oasis-8,OP-0009715,Philippines,,Philippines,,Philippines,,Philippines,,,,
001i000001PVrW2,TX AUSTRALIA PTY LTD,Alex Ng,0063100000cSz0Z,DTV64X Replacement Program,OP-0009269,Australia,,Australia,VIC,Australia,NSW,Australia,NSW,,,
001i000001PVrF5,"COMPOSITE TECHNOLOGY, INC.",Alex Ng,0063100000eCv4j,IBC13 1kW VHF BIII ATV,OP-0010420,Philippines,,Philippines,,Philippines,,Philippines,,,,
001i000001PVrF5,"COMPOSITE TECHNOLOGY, INC.",Alex Ng,0063100000cTvaI,GMA ULX PCM-2 Upgrade Kit,OP-0009523,Philippines,,Philippines,,Philippines,,Philippines,,,,
001i000001PVrF5,"COMPOSITE TECHNOLOGY, INC.",Alex Ng,0063100000dN1XA,RPN DTT RFP 5 & 10kW,OP-0009712,Philippines,,Philippines,,Philippines,,Philippines,,,,
001i000001PVofe,THE BRIDGE NETWORKS LTD. [USD],Alex Ng,0063100000cRlyT,NZ Gov Budgetary for DAB,OP-0009093,New Zealand,,New Zealand,,New Zealand,,New Zealand,,,,
001i000001PVrVe,BAI Communications Pty Ltd,Alex Ng,0063100000cS9oe,Gore Hill MSC Upgrade,OP-0009144,Australia,,Australia,NSW,Australia,NSW,Australia,NSW,,,
001i000001PVqtq,KOREAN BROADCASTING SYSTEM,Alex Ng,0063100000dO3ET,"KBS UHD for Namsan, Gwanak & Gwangyo",OP-0009958,"Korea, Republic of",,"Korea, Republic of",,"Korea, Republic of",,"Korea, Republic of",,,,
001i000001QMqHE,MUNWHA BROADCASTING CORPORATION,Alex Ng,0063100000dNSmI,"MBC UHD project for Kwanak, Namsan, Yongmoon and Gwangyo",OP-0009860,"Korea, Republic of",,"Korea, Republic of",,"Korea, Republic of",,"Korea, Republic of",,,,
001i000001PVrF5,"COMPOSITE TECHNOLOGY, INC.",Alex Ng,0063100000dO0JG,CMN_Roxas 3kW or 5kW FM,OP-0009949,Philippines,,Philippines,,Philippines,,Philippines,,,,
001i000001QMpcM,GMA NETWORK INC,Alex Ng,0065A00000WtOws,GMA ISDB-T Conversion to ATV,OP-0013605,Philippines,,Philippines,,Philippines,,Philippines,,,,
001i000001XN1bs,Raeair Broadcast Systems Pty Limited,Alex Ng,0063100000hECSt,IP Network for 20 sites and 1 hub,OP-0011833,Australia,,Australia,QLD,Australia,QLD,Australia,QLD,,,
001i000001QMqHE,MUNWHA BROADCASTING CORPORATION,Alex Ng,0065A00000jaXj3,MBC Daejeon AM 10kW 2021,OP-0015468,"Korea, Republic of",,"Korea, Republic of",,"Korea, Republic of",,"Korea, Republic of",,,,
001i000001PVrF5,"COMPOSITE TECHNOLOGY, INC.",Alex Ng,0063100000fhCEZ,PTNI VHF 10kW & 30kW ATV,OP-0011193,Philippines,,Philippines,,Philippines,,Philippines,,,,
001i000001PVqj4,VISION TELECOM CORPORATION,Alex Ng,0063100000filMz,KBS DTV and FM Repeater,OP-0011314,"Korea, Republic of",,"Korea, Republic of",,"Korea, Republic of",,"Korea, Republic of",,,,
001i000001PVrF5,"COMPOSITE TECHNOLOGY, INC.",Alex Ng,0063100000fiHIQ,PTV-4 Davao ATV VHF 10kW+10kW,OP-0011285,Philippines,,Philippines,,Philippines,,Philippines,,,,
001i000001QMqHE,MUNWHA BROADCASTING CORPORATION,Alex Ng,0063100000fhoUy,MBC Affiliates UHD Rollout,OP-0011239,"Korea, Republic of",,"Korea, Republic of",,"Korea, Republic of",,"Korea, Republic of",,,,
001i000001PVrZN,ABS-CBN Corporation,Alex Ng,0063100000fj9fa,RFI for 1kW UHF/VHF & 10kW UHF ATV,OP-0011348,Philippines,,Philippines,,Philippines,,Philippines,,,,
001i000001PVrQ3,CATUR MITRA ADHIKARA PT,Alex Ng,0063100000fj3gj,Banten TV 60kW Digital Ready ATV,OP-0011338,Indonesia,,Indonesia,,Indonesia,,Indonesia,,,,
001i000001QMpcM,GMA NETWORK INC,Alex Ng,0063100000fixbT,GMA RFQ for Spare FAX50,OP-0011332,Philippines,,Philippines,,Philippines,,Philippines,,,,
001i000001QMqHE,MUNWHA BROADCASTING CORPORATION,Alex Ng,0065A00000WiWSO,MBC Seoul - 1kW UHD for Eungam,OP-0012762,"Korea, Republic of",,"Korea, Republic of",,"Korea, Republic of",,"Korea, Republic of",,,,
001i000001PVrF5,"COMPOSITE TECHNOLOGY, INC.",Alex Ng,0063100000gQ3id,BBS - RFQ for 5kW & 20kW FM,OP-0011440,Philippines,,Philippines,,Philippines,,Philippines,,,,
001i000001PVqj4,VISION TELECOM CORPORATION,Alex Ng,0063100000gS1ku,FAX50 replacement for Digit CD,OP-0011610,"Korea, Republic of",,"Korea, Republic of",,"Korea, Republic of",,"Korea, Republic of",,,,
0013100001pVkrW,Gencom Technology Limited,Alex Ng,0063100000hEq4R,MediaWorks Radio IP Link MPX for 7 Channels,OP-0011877,New Zealand,,New Zealand,Auckland,New Zealand,Auckland,,,,,
0013100001pVkrW,Gencom Technology Limited,Alex Ng,0065A00000iAGuG,NZME - Flexiva LX 300W,OP-0013390,New Zealand,,New Zealand,Auckland,New Zealand,Auckland,,,,,
001i000001PVrd2,AIBB International Inc.,Alex Ng,0065A00000WiMNH,SBS affiliate Stations UHD,OP-0012618,"Korea, Republic of",,"Korea, Republic of",,"Korea, Republic of",,"Korea, Republic of",,,,
001i000001PVrd2,AIBB International Inc.,Alex Ng,0065A00000qijcd,JTV - Intraplex module DS-64NC,OP-0016848,"Korea, Republic of",,"Korea, Republic of",,"Korea, Republic of",,"Korea, Republic of",,,,
001i000001PVqtq,KOREAN BROADCASTING SYSTEM,Alex Ng,0065A00000Wis4A,High Power AM Replacement Budget,OP-0012958,"Korea, Republic of",,"Korea, Republic of",,"Korea, Republic of",,"Korea, Republic of",,,,
001i000001PVqj4,VISION TELECOM CORPORATION,Alex Ng,0065A00000jaKow,KBS DMB 150W,OP-0015352,"Korea, Republic of",,"Korea, Republic of",,"Korea, Republic of",,"Korea, Republic of",,,,
001i000001PVqj4,VISION TELECOM CORPORATION,Alex Ng,0065A00000Wii9K,MBC 100W FM 1+1,OP-0012888,"Korea, Republic of",,"Korea, Republic of",,"Korea, Republic of",,"Korea, Republic of",,,,
001i000001PVrVe,BAI Communications Pty Ltd,Alex Ng,0063100000hZyLA,DAB+ 600W System - 3 sets,OP-0012306,Australia,,Australia,NSW,Australia,NSW,Australia,NSW,,,
001i000001PVrQ3,CATUR MITRA ADHIKARA PT,Alex Ng,0063100000ha65c,Thifal Media Z10CD + FAX10K,OP-0012329,Indonesia,,Indonesia,,Indonesia,,Indonesia,,,,
001i000001PVrF5,"COMPOSITE TECHNOLOGY, INC.",Alex Ng,0063100000haEp2,IP Link 200 Demo Unit,OP-0012369,Philippines,,Philippines,,Philippines,,Philippines,,,,
001i000001PVrF5,"COMPOSITE TECHNOLOGY, INC.",Alex Ng,0065A00000WiT3W,SBN - 2.5kW DTV for Telered in Anti Polo,OP-0012698,Philippines,,Philippines,,Philippines,,Philippines,,,,
001i000001PVrd2,AIBB International Inc.,Alex Ng,0065A00000lhi9h,IP Link 200,OP-0016028,"Korea, Republic of",,"Korea, Republic of",,"Korea, Republic of",,"Korea, Republic of",,,,
001i000001PVrF5,"COMPOSITE TECHNOLOGY, INC.",Alex Ng,0065A00000Wimee,UNTV - 4-port SW & IP Link 100,OP-0012924,Philippines,,Philippines,,Philippines,,Philippines,,,,
001i000001PVrF5,"COMPOSITE TECHNOLOGY, INC.",Alex Ng,0065A00000WimeZ,Aliw Broadcasting - FM 30kW,OP-0012923,Philippines,,Philippines,,Philippines,,Philippines,,,,
001i000001PVrF5,"COMPOSITE TECHNOLOGY, INC.",Alex Ng,0065A00000Wimej,Delta Broadcasting - IP Link 100,OP-0012925,Philippines,,Philippines,,Philippines,,Philippines,,,,
0015A00001ZzQuV,Ubiquitous Frontier,Alex Ng,0065A00000WimeP,Equatorial Guinea T2 Rollout,OP-0012922,south korea,,,,South Korea,Seoul,Equatorial Guinea,,,,
001i000001QMqHE,MUNWHA BROADCASTING CORPORATION,Alex Ng,0065A00000Wimdq,MBC Seoul UHD 2kW 1+1 - Gaeyang,OP-0012921,"Korea, Republic of",,"Korea, Republic of",,"Korea, Republic of",,"Korea, Republic of",,,,
001i000001PVrQ3,CATUR MITRA ADHIKARA PT,Alex Ng,0065A00000Wj5Bw,MNC - 2 x 40kW Digital Ready ATV,OP-0013089,Indonesia,,Indonesia,,Indonesia,,Indonesia,,,,
001i000001PVqj4,VISION TELECOM CORPORATION,Alex Ng,0065A00000i0Vt2,KBS - M/A 1kW & 3kW FM,OP-0013208,"Korea, Republic of",,"Korea, Republic of",,"Korea, Republic of",,"Korea, Republic of",,,,
001i000001PVrF5,"COMPOSITE TECHNOLOGY, INC.",Alex Ng,0065A00000Wt8ie,"MBN FM 3kW, 2kW & 1kW",OP-0013477,Philippines,,Philippines,,Philippines,,Philippines,,,,
001i000001PVrd2,AIBB International Inc.,Alex Ng,0065A00000i0jHc,MBC - Wooam & Gayeob FM 1kW & 3kW,OP-0013304,"Korea, Republic of",,"Korea, Republic of",,"Korea, Republic of",,"Korea, Republic of",,,,
001i000001XN1bs,Raeair Broadcast Systems Pty Limited,Alex Ng,0065A00000i0M9n,Brisbane 4-MBS 5kW FAX,OP-0013136,Australia,,Australia,QLD,Australia,QLD,Australia,QLD,,,
001i000001PVrF5,"COMPOSITE TECHNOLOGY, INC.",Alex Ng,0065A00000jaMRa,Cebu 20kW FM,OP-0015363,Philippines,,Philippines,,Philippines,,Philippines,,,,
0013100001pVkrW,Gencom Technology Limited,Alex Ng,0065A00000jTnwR,Internews South Sudan LX300 & LX600,OP-0014560,New Zealand,,New Zealand,Auckland,New Zealand,Auckland,,,,,
001i000001QMpcM,GMA NETWORK INC,Alex Ng,0065A00000Wt5Gg,GMA FAX20K Backup for FAX40K,OP-0013433,Philippines,,Philippines,,Philippines,,Philippines,,,,
001i000001PVrVe,BAI Communications Pty Ltd,Alex Ng,0065A00000WuZVL,BA - UHF 10W Tx,OP-0014355,Australia,,Australia,NSW,Australia,NSW,Australia,NSW,,,
001i000001QMqHE,MUNWHA BROADCASTING CORPORATION,Alex Ng,0065A00000WuvEY,"MBC Seoul - 2kW UHD for Gaeyang, Haeryoung",OP-0014482,"Korea, Republic of",,"Korea, Republic of",,"Korea, Republic of",,"Korea, Republic of",,,,
001i000001PVqj4,VISION TELECOM CORPORATION,Alex Ng,0065A00000jaXjS,ARMY Haengju AM 100kW,OP-0015473,"Korea, Republic of",,"Korea, Republic of",,"Korea, Republic of",,"Korea, Republic of",,,,
001i000001QMqHE,MUNWHA BROADCASTING CORPORATION,Alex Ng,0065A00000jaXj8,MBC Pusan AM 20kW 2019,OP-0015469,"Korea, Republic of",,"Korea, Republic of",,"Korea, Republic of",,"Korea, Republic of",,,,
001i000001PVqj4,VISION TELECOM CORPORATION,Alex Ng,0065A00000ibPee,MBC XTE for R&D,OP-0014637,"Korea, Republic of",,"Korea, Republic of",,"Korea, Republic of",,"Korea, Republic of",,,,
001i000001PVrQ3,CATUR MITRA ADHIKARA PT,Alex Ng,0065A00000jTvzY,"Radio ISTARA - FM 50W, 3.5kW and 5kW",OP-0014634,Indonesia,,Indonesia,,Indonesia,,Indonesia,,,,
001i000001PVqj4,VISION TELECOM CORPORATION,Alex Ng,0065A00000ibZSC,MBC Gwangju FM 1kW,OP-0014717,"Korea, Republic of",,"Korea, Republic of",,"Korea, Republic of",,"Korea, Republic of",,,,
001i000001PVrQ3,CATUR MITRA ADHIKARA PT,Alex Ng,0065A00001X9mKh,TVRI Bali 500W DTV,OP-0018982,Indonesia,,Indonesia,,Indonesia,,Indonesia,,,,
001i000001PVrd2,AIBB International Inc.,Alex Ng,0065A00000ibafy,SYGCOM 4 units of FM 3kW,OP-0014725,"Korea, Republic of",,"Korea, Republic of",,"Korea, Republic of",,"Korea, Republic of",,,,
001i000001PVqj4,VISION TELECOM CORPORATION,Alex Ng,0065A00000WuslP,MBC FMR 100W,OP-0014471,"Korea, Republic of",,"Korea, Republic of",,"Korea, Republic of",,"Korea, Republic of",,,,
001i000001PVrd2,AIBB International Inc.,Alex Ng,0065A00000jTrUg,Gukak FM - FM 1KW,OP-0014596,"Korea, Republic of",,"Korea, Republic of",,"Korea, Republic of",,"Korea, Republic of",,,,
001i000001QMqHE,MUNWHA BROADCASTING CORPORATION,Alex Ng,0065A00000jaXit,MBC Jeju AM 10kW 2019,OP-0015466,"Korea, Republic of",,"Korea, Republic of",,"Korea, Republic of",,"Korea, Republic of",,,,
001i000001PVrd2,AIBB International Inc.,Alex Ng,0065A00000jZTVc,IP Link Price List,OP-0014872,"Korea, Republic of",,"Korea, Republic of",,"Korea, Republic of",,"Korea, Republic of",,,,
001i000001PVrF5,"COMPOSITE TECHNOLOGY, INC.",Alex Ng,0065A00000jaXy3,Tarlac City FM 5kW,OP-0015481,Philippines,,Philippines,,Philippines,,Philippines,,,,
001i000001PVrZN,ABS-CBN Corporation,Alex Ng,0065A00000ibbfx,ABS CBN Guimaras FM 10kW,OP-0014735,Philippines,,Philippines,,Philippines,,Philippines,,,,
001i000001PVrd2,AIBB International Inc.,Alex Ng,0065A00000ibhDX,SBS 1kW UHD M/A in 1 rack,OP-0014792,"Korea, Republic of",,"Korea, Republic of",,"Korea, Republic of",,"Korea, Republic of",,,,
001i000001PVqth,Sanko Progress Mabis Corporation,Alex Ng,0065A00000jaY25,Tanaka Denki FAX50 M/A System Demo Loan,OP-0015482,Japan,,Japan,,Japan,,Japan,,,,
001i000001PVrd2,AIBB International Inc.,Alex Ng,0065A00000jZaJY,Demo quote for IP Links for KOBA 2018,OP-0014913,"Korea, Republic of",,"Korea, Republic of",,"Korea, Republic of",,"Korea, Republic of",,,,
001i000001PVqj4,VISION TELECOM CORPORATION,Alex Ng,0065A00000jaXjN,CBS Seoul AM 50kW 2021,OP-0015472,"Korea, Republic of",,"Korea, Republic of",,"Korea, Republic of",,"Korea, Republic of",,,,
001i000001PVrQ3,CATUR MITRA ADHIKARA PT,Alex Ng,0065A00000lhgQs,Trans TV DTV Tx Lease,OP-0016018,Indonesia,,Indonesia,,Indonesia,,Indonesia,,,,
001i000001PVrW2,TX AUSTRALIA PTY LTD,Alex Ng,0065A00000lhgRM,Demo Quote - XTE and DTV660 Tool,OP-0016019,Australia,,Australia,VIC,Australia,NSW,Australia,NSW,,,
001i000001PVqj4,VISION TELECOM CORPORATION,Alex Ng,0065A00000lhZ8M,Demo Quote - XTE and MSC for MIMIC Design,OP-0015945,"Korea, Republic of",,"Korea, Republic of",,"Korea, Republic of",,"Korea, Republic of",,,,
001i000001PVrd2,AIBB International Inc.,Alex Ng,0065A00000lhi98,SYGCOM 10kW FM M/A,OP-0016026,"Korea, Republic of",,"Korea, Republic of",,"Korea, Republic of",,"Korea, Republic of",,,,
001i000001PVrF5,"COMPOSITE TECHNOLOGY, INC.",Alex Ng,0065A00000lhOv4,GMA MYAT Switchless Combiner Part,OP-0015875,Philippines,,Philippines,,Philippines,,Philippines,,,,
001i000001PVrF5,"COMPOSITE TECHNOLOGY, INC.",Alex Ng,0065A00000lhagh,PTV 2019 DTV Budgetary Quote,OP-0015962,Philippines,,Philippines,,Philippines,,Philippines,,,,
001i000001PVqj4,VISION TELECOM CORPORATION,Alex Ng,0065A00001HMcTL,Korean Navy - 2 x AM 50kW,OP-0017400,"Korea, Republic of",,"Korea, Republic of",,"Korea, Republic of",,"Korea, Republic of",,,,
0015A000024g12d,JOY FM,Alex Ng,0065A00000m94Rz,HD Ready 1kW & 2kW Flexiva,OP-0016200,Philippines,,,GU,,GU,,,,,
001i000001PVrZN,ABS-CBN Corporation,Alex Ng,0065A00000qhaxd,ABS-CBN Outdoor 1kW 1+1 Systems,OP-0016533,Philippines,,Philippines,,Philippines,,Philippines,,,,
0015A00001SC4XR,Maple Audio Technology Corporation,Alex Ng,0065A00000qhoV5,IP Connect Demo Units,OP-0016607,Japan,,Japan,,Japan,ON,Japan,,,,
001i000001QMpcM,GMA NETWORK INC,Alex Ng,0065A00001HNKh3,GMA Platinum PoP Service,OP-0017682,Philippines,,Philippines,,Philippines,,Philippines,,,,
001i000001PVrF5,"COMPOSITE TECHNOLOGY, INC.",Alex Ng,0065A000019mGmm,TV5 - DTT Main Tx in NOVA,OP-0017193,Philippines,,Philippines,,Philippines,,Philippines,,,,
001i000001PVrd2,AIBB International Inc.,Alex Ng,0065A00001HPZtQ,TBC FM 5kW M/A,OP-0017839,"Korea, Republic of",,"Korea, Republic of",,"Korea, Republic of",,"Korea, Republic of",,,,
001i000001QMpcM,GMA NETWORK INC,Alex Ng,0065A00001HPKdg,GMA ATV 30kW,OP-0017767,Philippines,,Philippines,,Philippines,,Philippines,,,,
001i000001PVrQ3,CATUR MITRA ADHIKARA PT,Alex Ng,0065A000019mCtz,RRI - AM DRM Upgrades,OP-0017171,Indonesia,,Indonesia,,Indonesia,,Indonesia,,,,
001i000001PVrF5,"COMPOSITE TECHNOLOGY, INC.",Alex Ng,0065A00001WOGeu,Agusan del Sur - DTT 1kW,OP-0018318,Philippines,,Philippines,,Philippines,,Philippines,,,,
001i000001PVrF5,"COMPOSITE TECHNOLOGY, INC.",Alex Ng,0065A00001HPeJz,INC - 30kW ATV and 10kW DTV,OP-0017856,Philippines,,Philippines,,Philippines,,Philippines,,,,
001i000001PVrF5,"COMPOSITE TECHNOLOGY, INC.",Alex Ng,0065A00001HQFL9,Aliw Broadcasting FM 30kW RFQ,OP-0017991,Philippines,,Philippines,,Philippines,,Philippines,,,,
001i000001PVqj4,VISION TELECOM CORPORATION,Alex Ng,0065A00001WONUA,MBC Jeju FM 3kW 1+1,OP-0018392,"Korea, Republic of",,"Korea, Republic of",,"Korea, Republic of",,"Korea, Republic of",,,,
001i000001PVrQ3,CATUR MITRA ADHIKARA PT,Alex Ng,0065A00000qit3L,Demo Pricing for StreamAssure Package,OP-0016919,Indonesia,,Indonesia,,Indonesia,,Indonesia,,,,
001i000001PVrF5,"COMPOSITE TECHNOLOGY, INC.",Alex Ng,0065A00000qjLTV,BEAM UAXTE 1kW - 3kW to replace old Thomson,OP-0017134,Philippines,,Philippines,,Philippines,,Philippines,,,,
001i000001PVrd2,AIBB International Inc.,Alex Ng,0065A000019mIGV,Demo Loan Quote - 2 x LX1000,OP-0017207,"Korea, Republic of",,"Korea, Republic of",,"Korea, Republic of",,"Korea, Republic of",,,,
001i000001PVqj4,VISION TELECOM CORPORATION,Alex Ng,0065A00001HNED9,MBC Jeju - FM 2kW,OP-0017618,"Korea, Republic of",,"Korea, Republic of",,"Korea, Republic of",,"Korea, Republic of",,,,
001i000001PVrQ3,CATUR MITRA ADHIKARA PT,Alex Ng,0065A00001HQFOh,Metro TV 2kW ATV,OP-0017993,Indonesia,,Indonesia,,Indonesia,,Indonesia,,,,
001i000001QMpcM,GMA NETWORK INC,Alex Ng,0065A00000qjLTQ,GMA 2 Units of VHF Diplexer,OP-0017133,Philippines,,Philippines,,Philippines,,Philippines,,,,
001i000001PVrQ3,CATUR MITRA ADHIKARA PT,Alex Ng,0065A00001HQjyb,Solo Radio - FM 3kW,OP-0018212,Indonesia,,Indonesia,,Indonesia,,Indonesia,,,,
001i000001PVrQ3,CATUR MITRA ADHIKARA PT,Alex Ng,0065A000019mCtp,ANTV Group T2 Rollout,OP-0017169,Indonesia,,Indonesia,,Indonesia,,Indonesia,,,,
001i000001PVrF5,"COMPOSITE TECHNOLOGY, INC.",Alex Ng,0065A00001HQfTH,GV Broadcast AM 3kW & 5kW,OP-0018183,Philippines,,Philippines,,Philippines,,Philippines,,,,
001i000001QMpcM,GMA NETWORK INC,Alex Ng,0065A00001XA7h7,FAX Orban Card for Guimaras,OP-0019067,Philippines,,Philippines,,Philippines,,Philippines,,,,
001i000001PVrQ3,CATUR MITRA ADHIKARA PT,Alex Ng,0065A00001XAAC8,MYTV Service Visit for ULX,OP-0019082,Indonesia,,Indonesia,,Indonesia,,Indonesia,,,,
001i000001PVrQ3,CATUR MITRA ADHIKARA PT,Alex Ng,0065A00001XAVJL,RRI - FAX PA Module,OP-0019252,Indonesia,,Indonesia,,Indonesia,,Indonesia,,,,
001i000001QMpcM,GMA NETWORK INC,Alex Ng,0065A00001XASbT,ULX Test Fixture,OP-0019189,Philippines,,Philippines,,Philippines,,Philippines,,,,
001i000001PVrF5,"COMPOSITE TECHNOLOGY, INC.",Alex Ng,0065A00000WuD2Z,TV5 30kW ISDB-Tb,OP-0014228,Philippines,,Philippines,,Philippines,,Philippines,,,,
001i000001PVrd2,AIBB International Inc.,Alex Ng,0063100000ffvx0,MBC UHD - BIRD Elements for Line Sections,OP-0011084,"Korea, Republic of",,"Korea, Republic of",,"Korea, Republic of",,"Korea, Republic of",,,,
001i000001XN1bs,Raeair Broadcast Systems Pty Limited,Alex Ng,0063100000gRHBH,2WEB AM 10kW,OP-0011552,Australia,,Australia,QLD,Australia,QLD,Australia,QLD,,,
001i000001PVrZN,ABS-CBN Corporation,Alex Ng,0063100000eCuik,ABS-CBN Signal Improvement Project - 1KW FM ISABELA,OP-0010418,Philippines,,Philippines,,Philippines,,Philippines,,,,
001i000001XN1bs,Raeair Broadcast Systems Pty Limited,Alex Ng,0063100000dfVBT,RaeAir Oasis Console 8 & 12,OP-0010118,Australia,,Australia,QLD,Australia,QLD,Australia,QLD,,,
